0 [214, 38] BruteForce: 0.08606500000000006 bAb: 0.009418999999999844 RelativeError: 0.0
1 [251, 51] BruteForce: 0.08702600000000005 bAb: 0.008637999999999924 RelativeError: 0.0
2 [224, 41] BruteForce: 0.08761799999999997 bAb: 0.010153999999999996 RelativeError: 0.0
3 [122, 50] BruteForce: 0.08726600000000007 bAb: 0.010553000000000035 RelativeError: 0.0
4 [201, 46] BruteForce: 0.08912900000000001 bAb: 0.009727999999999959 RelativeError: 0.0
5 [205, 39] BruteForce: 0.08997300000000008 bAb: 0.00855299999999981 RelativeError: 0.0
6 [158, 37] BruteForce: 0.08832200000000023 bAb: 0.010126999999999997 RelativeError: 0.0
7 [226, 50] BruteForce: 0.08968500000000001 bAb: 0.008819000000000132 RelativeError: 0.0
8 [178, 39] BruteForce: 0.08714999999999984 bAb: 0.009474000000000204 RelativeError: 0.0
9 [221, 34] BruteForce: 0.08749699999999994 bAb: 0.008847999999999967 RelativeError: 0.0
10 [145, 38] BruteForce: 0.08819799999999978 bAb: 0.009306000000000036 RelativeError: 0.0
11 [172, 28] BruteForce: 0.0881649999999996 bAb: 0.008761999999999937 RelativeError: 0.0
12 [206, 45] BruteForce: 0.08553100000000002 bAb: 0.009047999999999945 RelativeError: 0.0
13 [204, 40] BruteForce: 0.08866500000000022 bAb: 0.009409999999999918 RelativeError: 0.0
14 [161, 46] BruteForce: 0.08936200000000039 bAb: 0.010027999999999704 RelativeError: 0.0
15 [201, 43] BruteForce: 0.08712999999999971 bAb: 0.00882000000000005 RelativeError: 0.0
16 [240, 29] BruteForce: 0.0872799999999998 bAb: 0.009285999999999905 RelativeError: 0.0
17 [145, 34] BruteForce: 0.08852200000000021 bAb: 0.008871000000000073 RelativeError: 0.0
18 [258, 51] BruteForce: 0.09173600000000004 bAb: 0.009411000000000058 RelativeError: 0.0
19 [187, 45] BruteForce: 0.08669299999999991 bAb: 0.008816000000000379 RelativeError: 0.0
20 [252, 43] BruteForce: 0.08742899999999976 bAb: 0.009530999999999956 RelativeError: 0.0
21 [199, 46] BruteForce: 0.08809800000000001 bAb: 0.009786000000000072 RelativeError: 0.0
22 [215, 49] BruteForce: 0.08837299999999981 bAb: 0.009313999999999822 RelativeError: 0.0
23 [214, 45] BruteForce: 0.08839799999999975 bAb: 0.00958900000000007 RelativeError: 0.0
24 [175, 36] BruteForce: 0.08754399999999984 bAb: 0.00974499999999967 RelativeError: 0.0
25 [191, 53] BruteForce: 0.08851299999999984 bAb: 0.009904000000000135 RelativeError: 0.0
26 [241, 40] BruteForce: 0.0881470000000002 bAb: 0.008370999999999906 RelativeError: 0.0
27 [180, 38] BruteForce: 0.09008199999999977 bAb: 0.009401999999999688 RelativeError: 0.0
28 [164, 39] BruteForce: 0.08748800000000001 bAb: 0.008922000000000097 RelativeError: 0.0
29 [198, 42] BruteForce: 0.08903699999999981 bAb: 0.009968999999999895 RelativeError: 0.0
30 [161, 48] BruteForce: 0.08615100000000009 bAb: 0.009670999999999985 RelativeError: 0.0
31 [161, 55] BruteForce: 0.08797699999999953 bAb: 0.008084999999999454 RelativeError: 0.0
32 [202, 46] BruteForce: 0.08643100000000015 bAb: 0.009507000000000154 RelativeError: 0.0
33 [225, 35] BruteForce: 0.0856300000000001 bAb: 0.008766000000000496 RelativeError: 0.0
34 [224, 43] BruteForce: 0.08639799999999997 bAb: 0.009479999999999933 RelativeError: 0.0
35 [217, 46] BruteForce: 0.08808700000000069 bAb: 0.009596999999999412 RelativeError: 0.0
36 [223, 45] BruteForce: 0.0917779999999997 bAb: 0.009951000000000043 RelativeError: 0.0
37 [226, 28] BruteForce: 0.08972900000000017 bAb: 0.009140999999999622 RelativeError: 0.0
38 [204, 38] BruteForce: 0.08758100000000013 bAb: 0.009795000000000442 RelativeError: 0.0
39 [214, 40] BruteForce: 0.08947000000000038 bAb: 0.008456999999999937 RelativeError: 0.0
