0 [125, 39] BruteForce: 0.08593000000000006 dynamic: 0.016693999999999987 RelativeError: 0.0
1 [212, 45] BruteForce: 0.08641500000000013 dynamic: 0.021161999999999903 RelativeError: 0.0
2 [153, 38] BruteForce: 0.08563399999999999 dynamic: 0.01971400000000001 RelativeError: 0.0
3 [143, 43] BruteForce: 0.08570300000000008 dynamic: 0.020299999999999985 RelativeError: 0.0
4 [132, 42] BruteForce: 0.08381100000000008 dynamic: 0.020229999999999748 RelativeError: 0.0
5 [194, 46] BruteForce: 0.08589399999999991 dynamic: 0.018013999999999974 RelativeError: 0.0
6 [193, 31] BruteForce: 0.08460500000000004 dynamic: 0.016052000000000177 RelativeError: 0.0
7 [117, 50] BruteForce: 0.08508400000000016 dynamic: 0.019341000000000275 RelativeError: 0.0
8 [160, 44] BruteForce: 0.08630000000000004 dynamic: 0.02132899999999993 RelativeError: 0.0
9 [108, 42] BruteForce: 0.08561700000000005 dynamic: 0.020363999999999827 RelativeError: 0.0
10 [205, 38] BruteForce: 0.08467199999999986 dynamic: 0.01931599999999989 RelativeError: 0.0
11 [100, 35] BruteForce: 0.0847920000000002 dynamic: 0.015293000000000223 RelativeError: 0.0
12 [158, 51] BruteForce: 0.08533500000000016 dynamic: 0.021123000000000225 RelativeError: 0.0
13 [147, 46] BruteForce: 0.08388100000000032 dynamic: 0.019376999999999978 RelativeError: 0.0
14 [196, 34] BruteForce: 0.08498300000000025 dynamic: 0.0163129999999998 RelativeError: 0.0
15 [223, 45] BruteForce: 0.08512800000000009 dynamic: 0.02041399999999971 RelativeError: 0.0
16 [132, 27] BruteForce: 0.08407600000000004 dynamic: 0.013898999999999884 RelativeError: 0.0
17 [151, 30] BruteForce: 0.08473699999999962 dynamic: 0.01665099999999997 RelativeError: 0.0
18 [163, 57] BruteForce: 0.0850789999999999 dynamic: 0.019292000000000087 RelativeError: 0.0
19 [142, 42] BruteForce: 0.08789300000000022 dynamic: 0.01818799999999987 RelativeError: 0.0
20 [171, 43] BruteForce: 0.08612399999999987 dynamic: 0.018826999999999927 RelativeError: 0.0
21 [190, 48] BruteForce: 0.08596799999999982 dynamic: 0.021952000000000194 RelativeError: 0.0
22 [161, 46] BruteForce: 0.08720799999999995 dynamic: 0.020936999999999983 RelativeError: 0.0
23 [153, 35] BruteForce: 0.08407600000000004 dynamic: 0.018053000000000097 RelativeError: 0.0
24 [135, 52] BruteForce: 0.08509300000000009 dynamic: 0.019741999999999926 RelativeError: 0.0
25 [195, 53] BruteForce: 0.08510300000000015 dynamic: 0.021081000000000127 RelativeError: 0.0
26 [133, 37] BruteForce: 0.08450700000000033 dynamic: 0.019017000000000284 RelativeError: 0.0
27 [143, 50] BruteForce: 0.08526500000000015 dynamic: 0.020812000000000275 RelativeError: 0.0
28 [169, 36] BruteForce: 0.08428000000000013 dynamic: 0.018622999999999834 RelativeError: 0.0
29 [172, 50] BruteForce: 0.08373400000000064 dynamic: 0.019569999999999865 RelativeError: 0.0
30 [178, 42] BruteForce: 0.08376199999999923 dynamic: 0.019224000000000352 RelativeError: 0.0
31 [172, 64] BruteForce: 0.0832259999999998 dynamic: 0.0184059999999997 RelativeError: 0.0
32 [180, 36] BruteForce: 0.0840329999999998 dynamic: 0.017871000000000414 RelativeError: 0.0
33 [155, 35] BruteForce: 0.08543900000000004 dynamic: 0.01962900000000012 RelativeError: 0.0
34 [174, 43] BruteForce: 0.08388400000000029 dynamic: 0.018496999999999986 RelativeError: 0.0
35 [176, 45] BruteForce: 0.08514599999999994 dynamic: 0.015740000000000087 RelativeError: 0.0
36 [255, 43] BruteForce: 0.08496600000000054 dynamic: 0.02027499999999982 RelativeError: 0.0
37 [136, 39] BruteForce: 0.08499500000000015 dynamic: 0.01840899999999923 RelativeError: 0.0
38 [238, 38] BruteForce: 0.0848709999999997 dynamic: 0.018919000000000352 RelativeError: 0.0
39 [178, 43] BruteForce: 0.08675800000000056 dynamic: 0.018622000000000583 RelativeError: 0.0
