0 [36, 43] BruteForce: 0.09049099999999988 dynamic: 0.022102000000000066 RelativeError: 0.0
1 [38, 45] BruteForce: 0.0877429999999999 dynamic: 0.015628999999999893 RelativeError: 0.0
2 [36, 51] BruteForce: 0.08874400000000016 dynamic: 0.021236000000000033 RelativeError: 0.0
3 [36, 49] BruteForce: 0.08457800000000004 dynamic: 0.01974600000000004 RelativeError: 0.0
4 [37, 44] BruteForce: 0.08831999999999995 dynamic: 0.017459000000000113 RelativeError: 0.0
5 [36, 26] BruteForce: 0.0872320000000002 dynamic: 0.012381999999999893 RelativeError: 0.0
6 [38, 36] BruteForce: 0.08713799999999994 dynamic: 0.016430000000000167 RelativeError: 0.0
7 [36, 48] BruteForce: 0.08749499999999988 dynamic: 0.021338999999999997 RelativeError: 0.0
8 [36, 32] BruteForce: 0.08737400000000006 dynamic: 0.015078999999999843 RelativeError: 0.0
9 [37, 52] BruteForce: 0.08871099999999998 dynamic: 0.02141700000000002 RelativeError: 0.0
10 [37, 49] BruteForce: 0.08868000000000009 dynamic: 0.0194160000000001 RelativeError: 0.0
11 [36, 30] BruteForce: 0.0866570000000002 dynamic: 0.015778999999999765 RelativeError: 0.0
12 [37, 42] BruteForce: 0.08748100000000036 dynamic: 0.01703700000000019 RelativeError: 0.0
13 [36, 48] BruteForce: 0.08971300000000015 dynamic: 0.018455999999999584 RelativeError: 0.0
14 [37, 37] BruteForce: 0.08838300000000032 dynamic: 0.016420999999999797 RelativeError: 0.0
15 [39, 55] BruteForce: 0.09004699999999977 dynamic: 0.020846999999999838 RelativeError: 0.0
16 [36, 54] BruteForce: 0.08693400000000029 dynamic: 0.020322000000000173 RelativeError: 0.0
17 [36, 34] BruteForce: 0.08945500000000006 dynamic: 0.016723000000000265 RelativeError: 0.0
18 [37, 42] BruteForce: 0.08759400000000017 dynamic: 0.01907799999999993 RelativeError: 0.0
19 [36, 35] BruteForce: 0.08981200000000022 dynamic: 0.015515999999999863 RelativeError: 0.0
20 [36, 54] BruteForce: 0.08657300000000001 dynamic: 0.01501700000000028 RelativeError: 0.0
21 [36, 53] BruteForce: 0.08653299999999975 dynamic: 0.017398000000000025 RelativeError: 0.0
22 [38, 49] BruteForce: 0.08686300000000013 dynamic: 0.018838999999999828 RelativeError: 0.0
23 [36, 38] BruteForce: 0.08585399999999987 dynamic: 0.013240999999999836 RelativeError: 0.0
24 [36, 45] BruteForce: 0.08584300000000011 dynamic: 0.018224000000000018 RelativeError: 0.0
25 [36, 53] BruteForce: 0.08419299999999996 dynamic: 0.018095000000000194 RelativeError: 0.0
26 [36, 55] BruteForce: 0.0890979999999999 dynamic: 0.02209199999999978 RelativeError: 0.0
27 [37, 43] BruteForce: 0.08832499999999932 dynamic: 0.01981199999999994 RelativeError: 0.0
28 [36, 25] BruteForce: 0.0894850000000007 dynamic: 0.015270000000000117 RelativeError: 0.0
29 [36, 45] BruteForce: 0.08792500000000025 dynamic: 0.020338999999999885 RelativeError: 0.0
30 [39, 46] BruteForce: 0.08711900000000039 dynamic: 0.020495000000000374 RelativeError: 0.0
31 [36, 35] BruteForce: 0.08615299999999948 dynamic: 0.017113999999999407 RelativeError: 0.0
32 [37, 39] BruteForce: 0.087148 dynamic: 0.016782000000000075 RelativeError: 0.0
33 [37, 43] BruteForce: 0.08760000000000012 dynamic: 0.01808799999999966 RelativeError: 0.0
34 [37, 41] BruteForce: 0.08748199999999962 dynamic: 0.02075300000000002 RelativeError: 0.0
35 [38, 32] BruteForce: 0.08665699999999976 dynamic: 0.015693999999999875 RelativeError: 0.0
36 [36, 43] BruteForce: 0.08614300000000075 dynamic: 0.021452000000000027 RelativeError: 0.0
37 [36, 42] BruteForce: 0.08690599999999993 dynamic: 0.01945799999999931 RelativeError: 0.0
38 [37, 33] BruteForce: 0.08700300000000016 dynamic: 0.017821999999999782 RelativeError: 0.0
39 [36, 24] BruteForce: 0.08615899999999943 dynamic: 0.011997999999999287 RelativeError: 0.0
