0 [214, 38] BruteForce: 0.08680399999999988 fptas10: 0.02954699999999999 RelativeError: 0.0
1 [251, 51] BruteForce: 0.0869810000000002 fptas10: 0.03127700000000022 RelativeError: 0.0
2 [224, 41] BruteForce: 0.08641699999999997 fptas10: 0.03666099999999983 RelativeError: 0.0
3 [122, 50] BruteForce: 0.08762599999999998 fptas10: 0.03516699999999995 RelativeError: 0.0
4 [201, 46] BruteForce: 0.090557 fptas10: 0.03618200000000016 RelativeError: 0.0
5 [205, 39] BruteForce: 0.08831199999999995 fptas10: 0.03421299999999983 RelativeError: 0.0
6 [158, 37] BruteForce: 0.08605000000000018 fptas10: 0.035759000000000096 RelativeError: 0.0
7 [226, 50] BruteForce: 0.08746500000000013 fptas10: 0.03455600000000003 RelativeError: 0.0
8 [178, 39] BruteForce: 0.0865910000000003 fptas10: 0.03195900000000007 RelativeError: 0.0
9 [221, 34] BruteForce: 0.08647300000000024 fptas10: 0.03259899999999982 RelativeError: 0.0
10 [145, 38] BruteForce: 0.08800399999999975 fptas10: 0.034343000000000234 RelativeError: 0.0
11 [172, 28] BruteForce: 0.08652300000000013 fptas10: 0.028894000000000197 RelativeError: 0.0
12 [206, 45] BruteForce: 0.08827600000000047 fptas10: 0.026830000000000354 RelativeError: 0.0
13 [204, 40] BruteForce: 0.08818899999999985 fptas10: 0.031960999999999906 RelativeError: 0.0
14 [161, 46] BruteForce: 0.08930799999999994 fptas10: 0.036103999999999914 RelativeError: 0.0
15 [201, 43] BruteForce: 0.08945599999999976 fptas10: 0.03654500000000027 RelativeError: 0.0
16 [240, 29] BruteForce: 0.08890300000000018 fptas10: 0.026720999999999773 RelativeError: 0.0
17 [145, 34] BruteForce: 0.08806700000000012 fptas10: 0.0302159999999998 RelativeError: 0.0
18 [258, 51] BruteForce: 0.08769300000000024 fptas10: 0.028259999999999952 RelativeError: 0.0
19 [187, 45] BruteForce: 0.08789300000000022 fptas10: 0.028198000000000167 RelativeError: 0.0
20 [252, 43] BruteForce: 0.08787499999999993 fptas10: 0.03187899999999999 RelativeError: 0.0
21 [199, 46] BruteForce: 0.08516199999999996 fptas10: 0.03406399999999987 RelativeError: 0.0
22 [215, 49] BruteForce: 0.08528199999999986 fptas10: 0.036831999999999976 RelativeError: 0.0
23 [214, 45] BruteForce: 0.08821900000000005 fptas10: 0.03708 RelativeError: 0.0
24 [175, 36] BruteForce: 0.08883399999999986 fptas10: 0.03091099999999969 RelativeError: 0.0
25 [191, 53] BruteForce: 0.08994199999999974 fptas10: 0.03648199999999946 RelativeError: 0.0
26 [241, 40] BruteForce: 0.0897969999999999 fptas10: 0.03421899999999933 RelativeError: 0.0
27 [180, 38] BruteForce: 0.08853199999999983 fptas10: 0.030676999999999843 RelativeError: 0.0
28 [164, 39] BruteForce: 0.0895039999999998 fptas10: 0.029595999999999734 RelativeError: 0.0
29 [198, 42] BruteForce: 0.08753900000000048 fptas10: 0.03449999999999953 RelativeError: 0.0
30 [161, 48] BruteForce: 0.08889299999999967 fptas10: 0.035017999999999994 RelativeError: 0.0
31 [161, 55] BruteForce: 0.08680999999999983 fptas10: 0.040455999999999825 RelativeError: 0.0
32 [202, 46] BruteForce: 0.08709300000000031 fptas10: 0.03546199999999988 RelativeError: 0.0
33 [225, 35] BruteForce: 0.08659600000000012 fptas10: 0.03481100000000037 RelativeError: 0.0
34 [224, 43] BruteForce: 0.08697900000000036 fptas10: 0.034411999999999665 RelativeError: 0.0
35 [217, 46] BruteForce: 0.08609299999999998 fptas10: 0.02894500000000022 RelativeError: 0.0
36 [223, 45] BruteForce: 0.08734199999999959 fptas10: 0.03497799999999973 RelativeError: 0.0
37 [226, 28] BruteForce: 0.08467100000000016 fptas10: 0.022330999999999435 RelativeError: 0.0
38 [204, 38] BruteForce: 0.08801100000000073 fptas10: 0.03346099999999996 RelativeError: 0.0
39 [214, 40] BruteForce: 0.08803499999999964 fptas10: 0.03436100000000053 RelativeError: 0.0
