0 [40, 46] BruteForce: 0.08685699999999996 heuristic: 0.0011129999999999196 RelativeError: 0.043478260869565216
1 [37, 52] BruteForce: 0.0869629999999999 heuristic: 0.0011019999999999364 RelativeError: 0.07692307692307693
2 [39, 43] BruteForce: 0.08556299999999983 heuristic: 0.001206999999999958 RelativeError: 0.023255813953488372
3 [41, 37] BruteForce: 0.08567999999999998 heuristic: 0.0011470000000000091 RelativeError: 0.05405405405405406
4 [36, 45] BruteForce: 0.08569899999999997 heuristic: 0.0011230000000002072 RelativeError: 0.022222222222222223
5 [41, 46] BruteForce: 0.08498300000000003 heuristic: 0.0009850000000000136 RelativeError: 0.043478260869565216
6 [39, 45] BruteForce: 0.08350000000000013 heuristic: 0.0012550000000000061 RelativeError: 0.044444444444444446
7 [39, 39] BruteForce: 0.08557999999999999 heuristic: 0.0009900000000000464 RelativeError: 0.05128205128205128
8 [38, 47] BruteForce: 0.08673400000000009 heuristic: 0.0010910000000001752 RelativeError: 0.0425531914893617
9 [37, 35] BruteForce: 0.08594800000000014 heuristic: 0.0012339999999999574 RelativeError: 0.05714285714285714
10 [39, 61] BruteForce: 0.08574899999999985 heuristic: 0.00100800000000012 RelativeError: 0.03278688524590164
11 [43, 45] BruteForce: 0.08543000000000012 heuristic: 0.0010919999999998709 RelativeError: 0.022222222222222223
12 [38, 50] BruteForce: 0.08448499999999992 heuristic: 0.0015710000000002111 RelativeError: 0.06
13 [39, 39] BruteForce: 0.08422200000000002 heuristic: 0.0011329999999998286 RelativeError: 0.10256410256410256
14 [38, 45] BruteForce: 0.08386499999999986 heuristic: 0.0010500000000002174 RelativeError: 0.08888888888888889
15 [39, 29] BruteForce: 0.08429799999999998 heuristic: 0.0014819999999997613 RelativeError: 0.06896551724137931
16 [37, 53] BruteForce: 0.08740799999999993 heuristic: 0.0010529999999997486 RelativeError: 0.018867924528301886
17 [36, 50] BruteForce: 0.08738000000000001 heuristic: 0.001338999999999757 RelativeError: 0.02
18 [42, 39] BruteForce: 0.08641100000000002 heuristic: 0.0010339999999997573 RelativeError: 0.05128205128205128
19 [37, 40] BruteForce: 0.08579399999999993 heuristic: 0.0012279999999997848 RelativeError: 0.075
20 [36, 54] BruteForce: 0.0870470000000001 heuristic: 0.0009759999999996438 RelativeError: 0.018518518518518517
21 [36, 54] BruteForce: 0.087507 heuristic: 0.0010210000000001607 RelativeError: 0.09259259259259259
22 [39, 47] BruteForce: 0.08452499999999974 heuristic: 0.0014659999999997453 RelativeError: 0.0425531914893617
23 [42, 57] BruteForce: 0.08688200000000013 heuristic: 0.0014140000000000263 RelativeError: 0.017543859649122806
24 [38, 48] BruteForce: 0.08389800000000003 heuristic: 0.000968000000000302 RelativeError: 0.020833333333333332
25 [39, 55] BruteForce: 0.08607900000000024 heuristic: 0.0010970000000001257 RelativeError: 0.09090909090909091
26 [39, 38] BruteForce: 0.08566699999999994 heuristic: 0.0009620000000003515 RelativeError: 0.05263157894736842
27 [37, 33] BruteForce: 0.08540400000000004 heuristic: 0.0014979999999997773 RelativeError: 0.06060606060606061
28 [36, 40] BruteForce: 0.08664199999999989 heuristic: 0.0009870000000002932 RelativeError: 0.025
29 [39, 48] BruteForce: 0.08531600000000017 heuristic: 0.0012840000000000629 RelativeError: 0.0625
30 [38, 47] BruteForce: 0.08507799999999976 heuristic: 0.0011209999999999276 RelativeError: 0.06382978723404255
31 [39, 52] BruteForce: 0.08668399999999998 heuristic: 0.0011719999999995068 RelativeError: 0.1346153846153846
32 [36, 34] BruteForce: 0.08625800000000039 heuristic: 0.0009660000000000224 RelativeError: 0.029411764705882353
33 [40, 39] BruteForce: 0.0868259999999994 heuristic: 0.0010719999999997398 RelativeError: 0.02564102564102564
34 [38, 50] BruteForce: 0.08660699999999988 heuristic: 0.0009980000000000544 RelativeError: 0.1
35 [37, 59] BruteForce: 0.08490500000000001 heuristic: 0.0016239999999996257 RelativeError: 0.03389830508474576
36 [36, 53] BruteForce: 0.08607299999999984 heuristic: 0.0009790000000000632 RelativeError: 0.09433962264150944
37 [41, 59] BruteForce: 0.08499199999999973 heuristic: 0.001514999999999489 RelativeError: 0.0847457627118644
38 [39, 43] BruteForce: 0.08505499999999966 heuristic: 0.001152000000000264 RelativeError: 0.046511627906976744
39 [38, 42] BruteForce: 0.08548400000000012 heuristic: 0.0015369999999998996 RelativeError: 0.023809523809523808
