0 "[46," "43]" "BruteForce:" 0,086235 "heuristic:" 0,001359 "RelativeError:" 0,023255814
1 "[37," "38]" "BruteForce:" 0,085544 "heuristic:" 0,001521 "RelativeError:" 0,0263157895
2 "[43," "54]" "BruteForce:" 0,087348 "heuristic:" 0,001347 "RelativeError:" 0,0185185185
3 "[44," "27]" "BruteForce:" 0,084854 "heuristic:" 0,001178 "RelativeError:" 0,037037037
4 "[36," "42]" "BruteForce:" 0,086164 "heuristic:" 0,0014 "RelativeError:" 0,0238095238
5 "[41," "39]" "BruteForce:" 0,086053 "heuristic:" 0,00108 "RelativeError:" 0,0256410256
6 "[41," "44]" "BruteForce:" 0,086313 "heuristic:" 0,000991 "RelativeError:" 0,0454545455
7 "[37," "20]" "BruteForce:" 0,08918 "heuristic:" 0,001186 "RelativeError:" 0,05
8 "[36," "33]" "BruteForce:" 0,08723 "heuristic:" 0,001242 "RelativeError:" 0,0303030303
9 "[44," "45]" "BruteForce:" 0,084737 "heuristic:" 0,000987 "RelativeError:" 0,0222222222
10 "[43," "41]" "BruteForce:" 0,086869 "heuristic:" 0,001281 "RelativeError:" 0,0243902439
11 "[39," "42]" "BruteForce:" 0,08667 "heuristic:" 0,000982 "RelativeError:" 0,0476190476
12 "[38," "39]" "BruteForce:" 0,088567 "heuristic:" 0,001403 "RelativeError:" 0,0256410256
13 "[39," "51]" "BruteForce:" 0,086601 "heuristic:" 0,001027 "RelativeError:" 0,0196078431
14 "[39," "28]" "BruteForce:" 0,085925 "heuristic:" 0,00161 "RelativeError:" 0,0714285714
15 "[41," "50]" "BruteForce:" 0,086309 "heuristic:" 0,001638 "RelativeError:" 0,02
16 "[44," "49]" "BruteForce:" 0,088635 "heuristic:" 0,001552 "RelativeError:" 0,0612244898
17 "[42," "42]" "BruteForce:" 0,085882 "heuristic:" 0,001191 "RelativeError:" 0,0238095238
18 "[37," "48]" "BruteForce:" 0,085435 "heuristic:" 0,001244 "RelativeError:" 0,0416666667
19 "[39," "48]" "BruteForce:" 0,087791 "heuristic:" 0,00116 "RelativeError:" 0,0833333333
20 "[39," "37]" "BruteForce:" 0,087167 "heuristic:" 0,001241 "RelativeError:" 0,027027027
21 "[38," "54]" "BruteForce:" 0,08578 "heuristic:" 0,001295 "RelativeError:" 0,1111111111
22 "[39," "43]" "BruteForce:" 0,087499 "heuristic:" 0,00121 "RelativeError:" 0,023255814
23 "[39," "66]" "BruteForce:" 0,085882 "heuristic:" 0,001527 "RelativeError:" 0,0757575758
24 "[37," "43]" "BruteForce:" 0,08523 "heuristic:" 0,001128 "RelativeError:" 0,023255814
25 "[37," "58]" "BruteForce:" 0,088189 "heuristic:" 0,001276 "RelativeError:" 0,0344827586
26 "[36," "41]" "BruteForce:" 0,085873 "heuristic:" 0,000993 "RelativeError:" 0,0243902439
27 "[42," "55]" "BruteForce:" 0,088035 "heuristic:" 0,00106 "RelativeError:" 0,0727272727
28 "[39," "42]" "BruteForce:" 0,084225 "heuristic:" 0,001155 "RelativeError:" 0,0714285714
29 "[36," "37]" "BruteForce:" 0,083769 "heuristic:" 0,001068 "RelativeError:" 0,0810810811
30 "[37," "56]" "BruteForce:" 0,083982 "heuristic:" 0,001208 "RelativeError:" 0,0535714286
31 "[44," "49]" "BruteForce:" 0,088326 "heuristic:" 0,00121 "RelativeError:" 0,0204081633
32 "[44," "48]" "BruteForce:" 0,08736 "heuristic:" 0,00171 "RelativeError:" 0,0625
33 "[41," "41]" "BruteForce:" 0,085415 "heuristic:" 0,001253 "RelativeError:" 0,0975609756
34 "[44," "49]" "BruteForce:" 0,085555 "heuristic:" 0,001188 "RelativeError:" 0,0408163265
35 "[40," "57]" "BruteForce:" 0,085055 "heuristic:" 0,000983 "RelativeError:" 0,1052631579
36 "[41," "51]" "BruteForce:" 0,085764 "heuristic:" 0,001098 "RelativeError:" 0,0196078431
37 "[40," "50]" "BruteForce:" 0,085103 "heuristic:" 0,001903 "RelativeError:" 0,04
38 "[40," "37]" "BruteForce:" 0,086012 "heuristic:" 0,000975 "RelativeError:" 0,027027027
39 "[44," "43]" "BruteForce:" 0,087587 "heuristic:" 0,000998 "RelativeError:" 0,023255814
"Average"    0,08635375  0,00124645  0,0438951564
"Median"    0,0861085  0,001209  0,0323928945
"Min"    0,083769  0,000975  0,0185185185
"Max"    0,08918  0,001903  0,1111111111
