0 [44, 58] BruteForce: 0.08743100000000004 fptas10: 0.04262699999999997 RelativeError: 0.0
1 [39, 67] BruteForce: 0.08775400000000011 fptas10: 0.046991000000000005 RelativeError: 0.0
2 [41, 89] BruteForce: 0.08664199999999989 fptas10: 0.048820000000000086 RelativeError: 0.0
3 [40, 81] BruteForce: 0.08602299999999996 fptas10: 0.04557499999999992 RelativeError: 0.0
4 [38, 60] BruteForce: 0.08642400000000006 fptas10: 0.042788999999999966 RelativeError: 0.0
5 [42, 95] BruteForce: 0.08493200000000001 fptas10: 0.04326099999999977 RelativeError: 0.0
6 [38, 65] BruteForce: 0.08606500000000006 fptas10: 0.044219999999999926 RelativeError: 0.0
7 [39, 79] BruteForce: 0.08736299999999986 fptas10: 0.04932599999999976 RelativeError: 0.0
8 [38, 58] BruteForce: 0.08847300000000002 fptas10: 0.037049999999999805 RelativeError: 0.0
9 [38, 58] BruteForce: 0.08656700000000006 fptas10: 0.040462999999999916 RelativeError: 0.0
10 [40, 47] BruteForce: 0.08811199999999975 fptas10: 0.040437999999999974 RelativeError: 0.0
11 [36, 91] BruteForce: 0.08610399999999974 fptas10: 0.04771700000000001 RelativeError: 0.0
12 [37, 115] BruteForce: 0.08691800000000027 fptas10: 0.04638300000000006 RelativeError: 0.0
13 [37, 97] BruteForce: 0.0851219999999997 fptas10: 0.05241600000000002 RelativeError: 0.0
14 [39, 99] BruteForce: 0.08539900000000022 fptas10: 0.0377080000000003 RelativeError: 0.0
15 [44, 72] BruteForce: 0.08674899999999974 fptas10: 0.049946999999999964 RelativeError: 0.0
16 [42, 51] BruteForce: 0.0883989999999999 fptas10: 0.035719999999999974 RelativeError: 0.0
17 [39, 86] BruteForce: 0.0867119999999999 fptas10: 0.042861999999999956 RelativeError: 0.0
18 [37, 66] BruteForce: 0.0874410000000001 fptas10: 0.04059400000000046 RelativeError: 0.0
19 [40, 95] BruteForce: 0.08600799999999964 fptas10: 0.04743499999999967 RelativeError: 0.0
20 [41, 64] BruteForce: 0.08753399999999978 fptas10: 0.040832999999999675 RelativeError: 0.0
21 [41, 77] BruteForce: 0.08503300000000014 fptas10: 0.04128900000000035 RelativeError: 0.0
22 [41, 92] BruteForce: 0.08627200000000013 fptas10: 0.04164399999999979 RelativeError: 0.0
23 [42, 83] BruteForce: 0.08781399999999984 fptas10: 0.03701500000000024 RelativeError: 0.0
24 [38, 90] BruteForce: 0.08895499999999945 fptas10: 0.040621000000000684 RelativeError: 0.0
25 [44, 66] BruteForce: 0.08660599999999974 fptas10: 0.04132699999999989 RelativeError: 0.0
26 [41, 93] BruteForce: 0.08661299999999983 fptas10: 0.051122000000000334 RelativeError: 0.0
27 [43, 104] BruteForce: 0.08652200000000043 fptas10: 0.04150399999999976 RelativeError: 0.0
28 [37, 88] BruteForce: 0.08620000000000072 fptas10: 0.0429649999999997 RelativeError: 0.0
29 [42, 61] BruteForce: 0.08472299999999944 fptas10: 0.03609099999999987 RelativeError: 0.0
30 [40, 85] BruteForce: 0.08543199999999995 fptas10: 0.04506399999999999 RelativeError: 0.0
31 [41, 74] BruteForce: 0.08658900000000003 fptas10: 0.04473400000000005 RelativeError: 0.0
32 [41, 100] BruteForce: 0.08728300000000022 fptas10: 0.03988600000000009 RelativeError: 0.0
33 [43, 39] BruteForce: 0.0870280000000001 fptas10: 0.03343799999999941 RelativeError: 0.0
34 [36, 79] BruteForce: 0.08488999999999969 fptas10: 0.0445310000000001 RelativeError: 0.0
35 [39, 61] BruteForce: 0.08508300000000002 fptas10: 0.04545599999999972 RelativeError: 0.0
36 [40, 77] BruteForce: 0.08502100000000024 fptas10: 0.04288399999999992 RelativeError: 0.0
37 [42, 70] BruteForce: 0.08442699999999981 fptas10: 0.04732099999999928 RelativeError: 0.0
38 [42, 66] BruteForce: 0.08658199999999994 fptas10: 0.03872800000000076 RelativeError: 0.0
39 [37, 63] BruteForce: 0.08504999999999985 fptas10: 0.04082000000000008 RelativeError: 0.0
