0 [52, 54] BruteForce: 0.08583199999999991 fptas10: 0.04138799999999998 RelativeError: 0.0
1 [44, 39] BruteForce: 0.08735899999999996 fptas10: 0.028542000000000067 RelativeError: 0.0
2 [43, 43] BruteForce: 0.08547100000000007 fptas10: 0.037196999999999925 RelativeError: 0.0
3 [44, 49] BruteForce: 0.08627099999999999 fptas10: 0.033331 RelativeError: 0.0
4 [44, 37] BruteForce: 0.08648100000000003 fptas10: 0.033862999999999976 RelativeError: 0.0
5 [43, 44] BruteForce: 0.08644000000000007 fptas10: 0.03163399999999994 RelativeError: 0.0
6 [44, 29] BruteForce: 0.08585200000000004 fptas10: 0.02674600000000016 RelativeError: 0.0
7 [42, 47] BruteForce: 0.08589400000000014 fptas10: 0.03961199999999976 RelativeError: 0.0
8 [44, 49] BruteForce: 0.08367300000000011 fptas10: 0.036151000000000266 RelativeError: 0.0
9 [43, 37] BruteForce: 0.08777500000000016 fptas10: 0.03360500000000011 RelativeError: 0.0
10 [44, 37] BruteForce: 0.0858209999999997 fptas10: 0.03166899999999995 RelativeError: 0.0
11 [42, 48] BruteForce: 0.08494800000000025 fptas10: 0.031131000000000242 RelativeError: 0.0
12 [41, 49] BruteForce: 0.08588700000000005 fptas10: 0.03034099999999995 RelativeError: 0.0
13 [44, 47] BruteForce: 0.08496499999999996 fptas10: 0.032191999999999776 RelativeError: 0.0
14 [44, 54] BruteForce: 0.08601399999999959 fptas10: 0.03668999999999967 RelativeError: 0.0
15 [43, 46] BruteForce: 0.08595700000000006 fptas10: 0.03212099999999962 RelativeError: 0.0
16 [44, 41] BruteForce: 0.08649700000000005 fptas10: 0.03039700000000023 RelativeError: 0.0
17 [44, 44] BruteForce: 0.08270400000000011 fptas10: 0.03061500000000006 RelativeError: 0.0
18 [44, 48] BruteForce: 0.08848600000000006 fptas10: 0.03871699999999967 RelativeError: 0.0
19 [43, 38] BruteForce: 0.0848469999999999 fptas10: 0.03015699999999999 RelativeError: 0.0
20 [44, 41] BruteForce: 0.08691400000000016 fptas10: 0.03292099999999998 RelativeError: 0.0
21 [44, 61] BruteForce: 0.08561899999999989 fptas10: 0.03159499999999982 RelativeError: 0.0
22 [42, 44] BruteForce: 0.08596200000000032 fptas10: 0.03321300000000038 RelativeError: 0.0
23 [42, 43] BruteForce: 0.08508000000000004 fptas10: 0.02760399999999974 RelativeError: 0.0
24 [44, 53] BruteForce: 0.0843250000000002 fptas10: 0.029790000000000205 RelativeError: 0.0
25 [41, 58] BruteForce: 0.08497299999999974 fptas10: 0.0357289999999999 RelativeError: 0.0
26 [43, 44] BruteForce: 0.08595299999999995 fptas10: 0.032537999999999734 RelativeError: 0.0
27 [43, 59] BruteForce: 0.08552900000000019 fptas10: 0.03322599999999998 RelativeError: 0.0
28 [43, 56] BruteForce: 0.08581099999999964 fptas10: 0.0351600000000003 RelativeError: 0.0
29 [44, 33] BruteForce: 0.08481499999999986 fptas10: 0.033471999999999724 RelativeError: 0.0
30 [44, 50] BruteForce: 0.08353100000000069 fptas10: 0.037695000000000256 RelativeError: 0.0
31 [44, 42] BruteForce: 0.08402900000000013 fptas10: 0.03423499999999979 RelativeError: 0.0
32 [44, 35] BruteForce: 0.08406800000000025 fptas10: 0.03155900000000056 RelativeError: 0.0
33 [44, 33] BruteForce: 0.08458599999999983 fptas10: 0.025763999999999676 RelativeError: 0.0
34 [44, 55] BruteForce: 0.08509499999999992 fptas10: 0.0368050000000002 RelativeError: 0.0
35 [43, 35] BruteForce: 0.08564100000000074 fptas10: 0.02999799999999997 RelativeError: 0.0
36 [44, 50] BruteForce: 0.08560800000000057 fptas10: 0.03759899999999927 RelativeError: 0.0
37 [44, 50] BruteForce: 0.08432299999999948 fptas10: 0.03695899999999952 RelativeError: 0.0
38 [41, 48] BruteForce: 0.0857139999999994 fptas10: 0.03602600000000056 RelativeError: 0.0
39 [44, 44] BruteForce: 0.08518099999999951 fptas10: 0.032744000000000106 RelativeError: 0.0
