0 [46, 46] BruteForce: 0.08336500000000013 heuristic: 0.0014199999999999768 RelativeError: 0.021739130434782608
1 [39, 44] BruteForce: 0.08697900000000014 heuristic: 0.0014680000000000248 RelativeError: 0.022727272727272728
2 [38, 44] BruteForce: 0.08571700000000004 heuristic: 0.0009990000000001942 RelativeError: 0.022727272727272728
3 [36, 47] BruteForce: 0.08798100000000009 heuristic: 0.0011520000000000419 RelativeError: 0.02127659574468085
4 [41, 44] BruteForce: 0.08574100000000007 heuristic: 0.0011529999999999596 RelativeError: 0.022727272727272728
5 [41, 38] BruteForce: 0.08604900000000004 heuristic: 0.0010299999999998644 RelativeError: 0.02631578947368421
6 [39, 38] BruteForce: 0.08423800000000004 heuristic: 0.0017169999999999686 RelativeError: 0.02631578947368421
7 [37, 63] BruteForce: 0.08494000000000002 heuristic: 0.0011309999999999931 RelativeError: 0.1111111111111111
8 [42, 47] BruteForce: 0.08661499999999989 heuristic: 0.0010069999999999801 RelativeError: 0.02127659574468085
9 [39, 28] BruteForce: 0.08470099999999992 heuristic: 0.0012130000000001306 RelativeError: 0.03571428571428571
10 [41, 41] BruteForce: 0.08512299999999984 heuristic: 0.0012579999999999814 RelativeError: 0.024390243902439025
11 [41, 38] BruteForce: 0.08679700000000024 heuristic: 0.0010729999999998796 RelativeError: 0.02631578947368421
12 [41, 31] BruteForce: 0.08591199999999999 heuristic: 0.0010669999999999291 RelativeError: 0.03225806451612903
13 [44, 60] BruteForce: 0.08578900000000012 heuristic: 0.001072000000000184 RelativeError: 0.016666666666666666
14 [43, 44] BruteForce: 0.08482900000000004 heuristic: 0.0012639999999999318 RelativeError: 0.022727272727272728
15 [42, 41] BruteForce: 0.08655300000000032 heuristic: 0.0010670000000003732 RelativeError: 0.04878048780487805
16 [39, 47] BruteForce: 0.08654399999999995 heuristic: 0.0009700000000001374 RelativeError: 0.1276595744680851
17 [43, 48] BruteForce: 0.0874649999999999 heuristic: 0.0010300000000000864 RelativeError: 0.020833333333333332
18 [42, 33] BruteForce: 0.08569600000000044 heuristic: 0.00169499999999978 RelativeError: 0.06060606060606061
19 [39, 48] BruteForce: 0.08718700000000013 heuristic: 0.0009900000000002684 RelativeError: 0.041666666666666664
20 [37, 43] BruteForce: 0.08371100000000009 heuristic: 0.0010099999999999554 RelativeError: 0.023255813953488372
21 [39, 54] BruteForce: 0.08516499999999994 heuristic: 0.0014440000000002229 RelativeError: 0.037037037037037035
22 [42, 47] BruteForce: 0.08490700000000029 heuristic: 0.0013760000000000439 RelativeError: 0.06382978723404255
23 [42, 38] BruteForce: 0.08641699999999997 heuristic: 0.0011440000000000339 RelativeError: 0.02631578947368421
24 [39, 41] BruteForce: 0.08393600000000001 heuristic: 0.001190999999999942 RelativeError: 0.024390243902439025
25 [41, 33] BruteForce: 0.08537999999999979 heuristic: 0.0012759999999998328 RelativeError: 0.09090909090909091
26 [44, 54] BruteForce: 0.08556300000000006 heuristic: 0.001282999999999923 RelativeError: 0.037037037037037035
27 [40, 46] BruteForce: 0.08337600000000034 heuristic: 0.0010580000000000034 RelativeError: 0.15217391304347827
28 [37, 37] BruteForce: 0.08335800000000004 heuristic: 0.0010390000000000121 RelativeError: 0.02702702702702703
29 [44, 50] BruteForce: 0.08279100000000028 heuristic: 0.0016289999999998805 RelativeError: 0.04
30 [42, 46] BruteForce: 0.08130900000000008 heuristic: 0.0010290000000003907 RelativeError: 0.06521739130434782
31 [39, 43] BruteForce: 0.08601500000000017 heuristic: 0.0019170000000001686 RelativeError: 0.046511627906976744
32 [44, 41] BruteForce: 0.08800499999999989 heuristic: 0.0013390000000002011 RelativeError: 0.04878048780487805
33 [43, 45] BruteForce: 0.08457200000000009 heuristic: 0.0010989999999999611 RelativeError: 0.022222222222222223
34 [39, 33] BruteForce: 0.08711299999999955 heuristic: 0.0011190000000000921 RelativeError: 0.030303030303030304
35 [39, 41] BruteForce: 0.08688699999999994 heuristic: 0.0011190000000000921 RelativeError: 0.024390243902439025
36 [41, 27] BruteForce: 0.08404399999999956 heuristic: 0.0013350000000000861 RelativeError: 0.037037037037037035
37 [38, 57] BruteForce: 0.08635199999999976 heuristic: 0.0011120000000000019 RelativeError: 0.08771929824561403
38 [44, 26] BruteForce: 0.08481800000000028 heuristic: 0.0010810000000001097 RelativeError: 0.11538461538461539
39 [38, 39] BruteForce: 0.08756699999999995 heuristic: 0.0010709999999996 RelativeError: 0.02564102564102564
