0 [37, 52] BruteForce: 0.08571099999999987 heuristic: 0.0015850000000001696 RelativeError: 0.019230769230769232
1 [46, 25] BruteForce: 0.08674500000000007 heuristic: 0.0010120000000000129 RelativeError: 0.04
2 [43, 45] BruteForce: 0.08643599999999996 heuristic: 0.0010219999999998564 RelativeError: 0.022222222222222223
3 [44, 27] BruteForce: 0.086978 heuristic: 0.0014539999999998443 RelativeError: 0.037037037037037035
4 [36, 45] BruteForce: 0.08538200000000007 heuristic: 0.0010189999999998811 RelativeError: 0.022222222222222223
5 [36, 46] BruteForce: 0.08691000000000004 heuristic: 0.001086999999999838 RelativeError: 0.021739130434782608
6 [43, 45] BruteForce: 0.0844180000000001 heuristic: 0.0011510000000001241 RelativeError: 0.044444444444444446
7 [40, 37] BruteForce: 0.08471899999999999 heuristic: 0.0010079999999998979 RelativeError: 0.02702702702702703
8 [37, 30] BruteForce: 0.08406399999999992 heuristic: 0.0012129999999999086 RelativeError: 0.03333333333333333
9 [41, 42] BruteForce: 0.07969099999999996 heuristic: 0.0011769999999999836 RelativeError: 0.023809523809523808
10 [41, 48] BruteForce: 0.08423399999999992 heuristic: 0.0010350000000003412 RelativeError: 0.041666666666666664
11 [39, 54] BruteForce: 0.08793799999999985 heuristic: 0.0011689999999999756 RelativeError: 0.05555555555555555
12 [36, 32] BruteForce: 0.08471699999999993 heuristic: 0.001294999999999824 RelativeError: 0.03125
13 [39, 62] BruteForce: 0.08631600000000006 heuristic: 0.0010020000000001694 RelativeError: 0.08064516129032258
14 [37, 48] BruteForce: 0.08570199999999994 heuristic: 0.001060000000000283 RelativeError: 0.020833333333333332
15 [39, 52] BruteForce: 0.08476399999999984 heuristic: 0.0010040000000000049 RelativeError: 0.038461538461538464
16 [37, 34] BruteForce: 0.08625300000000014 heuristic: 0.001166999999999696 RelativeError: 0.08823529411764706
17 [36, 32] BruteForce: 0.08726400000000023 heuristic: 0.0011810000000003207 RelativeError: 0.03125
18 [44, 39] BruteForce: 0.0878669999999997 heuristic: 0.0013119999999999798 RelativeError: 0.02564102564102564
19 [41, 50] BruteForce: 0.08638999999999974 heuristic: 0.0010180000000001854 RelativeError: 0.02
20 [42, 56] BruteForce: 0.08589700000000011 heuristic: 0.001503000000000032 RelativeError: 0.05357142857142857
21 [42, 44] BruteForce: 0.08691899999999997 heuristic: 0.001106999999999747 RelativeError: 0.022727272727272728
22 [43, 51] BruteForce: 0.08666000000000018 heuristic: 0.0010099999999999554 RelativeError: 0.0784313725490196
23 [36, 51] BruteForce: 0.08772700000000011 heuristic: 0.0011700000000001154 RelativeError: 0.0196078431372549
24 [38, 37] BruteForce: 0.08799899999999994 heuristic: 0.0010040000000000049 RelativeError: 0.08108108108108109
25 [42, 42] BruteForce: 0.08812099999999967 heuristic: 0.0013179999999999303 RelativeError: 0.023809523809523808
26 [39, 64] BruteForce: 0.08816599999999974 heuristic: 0.0011759999999996218 RelativeError: 0.078125
27 [40, 58] BruteForce: 0.08554100000000009 heuristic: 0.0012460000000000804 RelativeError: 0.034482758620689655
28 [37, 40] BruteForce: 0.08680599999999972 heuristic: 0.0014979999999997773 RelativeError: 0.025
29 [36, 42] BruteForce: 0.08670599999999995 heuristic: 0.0011049999999999116 RelativeError: 0.047619047619047616
30 [42, 43] BruteForce: 0.08707999999999982 heuristic: 0.0012840000000000629 RelativeError: 0.046511627906976744
31 [42, 46] BruteForce: 0.08651000000000009 heuristic: 0.0010110000000000952 RelativeError: 0.043478260869565216
32 [36, 41] BruteForce: 0.08660500000000004 heuristic: 0.0012050000000001226 RelativeError: 0.024390243902439025
33 [39, 36] BruteForce: 0.08825300000000036 heuristic: 0.0013090000000000046 RelativeError: 0.027777777777777776
34 [38, 48] BruteForce: 0.08451200000000014 heuristic: 0.0010140000000005145 RelativeError: 0.041666666666666664
35 [40, 42] BruteForce: 0.08531200000000005 heuristic: 0.0017160000000000508 RelativeError: 0.023809523809523808
36 [44, 44] BruteForce: 0.08760499999999993 heuristic: 0.0012060000000007065 RelativeError: 0.045454545454545456
37 [43, 50] BruteForce: 0.08716100000000004 heuristic: 0.0010079999999996758 RelativeError: 0.06
38 [44, 42] BruteForce: 0.08683499999999977 heuristic: 0.0014140000000004704 RelativeError: 0.023809523809523808
39 [36, 58] BruteForce: 0.08504299999999976 heuristic: 0.0009899999999998244 RelativeError: 0.08620689655172414
