0 [37, 37] BruteForce: 0.08782800000000002 heuristic: 0.0011159999999998949 RelativeError: 0.02702702702702703
1 [44, 40] BruteForce: 0.08772199999999986 heuristic: 0.0012700000000001044 RelativeError: 0.05
2 [44, 38] BruteForce: 0.08792699999999987 heuristic: 0.0009959999999999969 RelativeError: 0.02631578947368421
3 [42, 41] BruteForce: 0.08706000000000014 heuristic: 0.0010530000000001927 RelativeError: 0.04878048780487805
4 [38, 38] BruteForce: 0.08891800000000005 heuristic: 0.0010979999999998213 RelativeError: 0.05263157894736842
5 [36, 43] BruteForce: 0.08625799999999995 heuristic: 0.0010839999999998629 RelativeError: 0.023255813953488372
6 [43, 45] BruteForce: 0.08859200000000023 heuristic: 0.0011270000000001001 RelativeError: 0.044444444444444446
7 [41, 42] BruteForce: 0.08607399999999998 heuristic: 0.0016319999999998558 RelativeError: 0.07142857142857142
8 [37, 38] BruteForce: 0.08438499999999993 heuristic: 0.0010410000000000696 RelativeError: 0.02631578947368421
9 [41, 52] BruteForce: 0.08863399999999988 heuristic: 0.0009870000000002932 RelativeError: 0.019230769230769232
10 [44, 45] BruteForce: 0.08801300000000012 heuristic: 0.0011120000000000019 RelativeError: 0.022222222222222223
11 [43, 41] BruteForce: 0.08698099999999975 heuristic: 0.001170999999999811 RelativeError: 0.024390243902439025
12 [39, 35] BruteForce: 0.08753200000000039 heuristic: 0.0010889999999998956 RelativeError: 0.02857142857142857
13 [39, 55] BruteForce: 0.08749099999999999 heuristic: 0.0014969999999996375 RelativeError: 0.10909090909090909
14 [38, 54] BruteForce: 0.08715899999999976 heuristic: 0.0011070000000001912 RelativeError: 0.09259259259259259
15 [43, 39] BruteForce: 0.087202 heuristic: 0.000984000000000318 RelativeError: 0.02564102564102564
16 [41, 48] BruteForce: 0.08861499999999989 heuristic: 0.000980000000000203 RelativeError: 0.020833333333333332
17 [44, 35] BruteForce: 0.08768999999999982 heuristic: 0.0009739999999998084 RelativeError: 0.08571428571428572
18 [44, 35] BruteForce: 0.08849899999999966 heuristic: 0.0009839999999998739 RelativeError: 0.02857142857142857
19 [41, 47] BruteForce: 0.08744899999999989 heuristic: 0.0011190000000000921 RelativeError: 0.02127659574468085
20 [43, 51] BruteForce: 0.08380300000000007 heuristic: 0.001196000000000197 RelativeError: 0.0392156862745098
21 [42, 36] BruteForce: 0.08616599999999996 heuristic: 0.0010880000000002 RelativeError: 0.027777777777777776
22 [43, 52] BruteForce: 0.08490100000000034 heuristic: 0.001116000000000117 RelativeError: 0.07692307692307693
23 [36, 56] BruteForce: 0.08402899999999969 heuristic: 0.0010919999999998709 RelativeError: 0.017857142857142856
24 [44, 38] BruteForce: 0.0819460000000003 heuristic: 0.0012490000000000556 RelativeError: 0.07894736842105263
25 [40, 56] BruteForce: 0.08881099999999975 heuristic: 0.0010180000000001854 RelativeError: 0.017857142857142856
26 [39, 56] BruteForce: 0.08964499999999997 heuristic: 0.000992000000000104 RelativeError: 0.017857142857142856
27 [40, 58] BruteForce: 0.08690199999999981 heuristic: 0.0013259999999997163 RelativeError: 0.034482758620689655
28 [39, 46] BruteForce: 0.08637999999999968 heuristic: 0.0017979999999999663 RelativeError: 0.043478260869565216
29 [36, 49] BruteForce: 0.08532300000000026 heuristic: 0.0010609999999999786 RelativeError: 0.08163265306122448
30 [42, 49] BruteForce: 0.08701399999999992 heuristic: 0.0010900000000000354 RelativeError: 0.061224489795918366
31 [42, 45] BruteForce: 0.08848199999999995 heuristic: 0.001072000000000184 RelativeError: 0.022222222222222223
32 [39, 42] BruteForce: 0.08868299999999962 heuristic: 0.000980000000000203 RelativeError: 0.07142857142857142
33 [36, 37] BruteForce: 0.08861700000000017 heuristic: 0.0010739999999991312 RelativeError: 0.08108108108108109
34 [40, 56] BruteForce: 0.08898600000000023 heuristic: 0.0011179999999999524 RelativeError: 0.08928571428571429
35 [40, 42] BruteForce: 0.08665300000000009 heuristic: 0.0009770000000006718 RelativeError: 0.023809523809523808
36 [44, 40] BruteForce: 0.08592200000000005 heuristic: 0.0014510000000003132 RelativeError: 0.05
37 [40, 35] BruteForce: 0.08704200000000029 heuristic: 0.0012290000000003687 RelativeError: 0.02857142857142857
38 [44, 34] BruteForce: 0.08695300000000028 heuristic: 0.0015249999999999986 RelativeError: 0.029411764705882353
39 [44, 55] BruteForce: 0.0864009999999995 heuristic: 0.0010150000000006543 RelativeError: 0.09090909090909091
