0 [38, 40] BruteForce: 0.08594999999999997 bAb: 0.010261000000000076 RelativeError: 0.0
1 [39, 36] BruteForce: 0.08681400000000017 bAb: 0.008572000000000024 RelativeError: 0.0
2 [36, 35] BruteForce: 0.08581499999999997 bAb: 0.009641999999999928 RelativeError: 0.0
3 [37, 40] BruteForce: 0.08375299999999997 bAb: 0.010218999999999756 RelativeError: 0.0
4 [36, 36] BruteForce: 0.08676600000000012 bAb: 0.009924999999999962 RelativeError: 0.0
5 [40, 44] BruteForce: 0.08442699999999981 bAb: 0.010094999999999965 RelativeError: 0.0
6 [37, 46] BruteForce: 0.08663900000000013 bAb: 0.00965499999999997 RelativeError: 0.0
7 [36, 47] BruteForce: 0.08704500000000026 bAb: 0.010251999999999928 RelativeError: 0.0
8 [37, 45] BruteForce: 0.08617999999999992 bAb: 0.009523999999999866 RelativeError: 0.0
9 [36, 43] BruteForce: 0.08735799999999982 bAb: 0.009716999999999754 RelativeError: 0.0
10 [39, 58] BruteForce: 0.08552199999999965 bAb: 0.010907 RelativeError: 0.0
11 [37, 43] BruteForce: 0.08391199999999976 bAb: 0.00973999999999986 RelativeError: 0.0
12 [36, 50] BruteForce: 0.08340400000000026 bAb: 0.009115000000000428 RelativeError: 0.0
13 [38, 40] BruteForce: 0.08325800000000028 bAb: 0.010251999999999928 RelativeError: 0.0
14 [37, 39] BruteForce: 0.08715900000000021 bAb: 0.008665000000000145 RelativeError: 0.0
15 [36, 56] BruteForce: 0.08813000000000004 bAb: 0.010251999999999928 RelativeError: 0.0
16 [36, 33] BruteForce: 0.08944200000000002 bAb: 0.0091190000000001 RelativeError: 0.0
17 [36, 57] BruteForce: 0.08715699999999993 bAb: 0.010273999999999894 RelativeError: 0.0
18 [36, 54] BruteForce: 0.08710500000000021 bAb: 0.010072000000000081 RelativeError: 0.0
19 [40, 55] BruteForce: 0.08492800000000011 bAb: 0.009958999999999829 RelativeError: 0.0
20 [37, 40] BruteForce: 0.08443099999999992 bAb: 0.00989299999999993 RelativeError: 0.0
21 [37, 37] BruteForce: 0.08704799999999979 bAb: 0.008864999999999679 RelativeError: 0.0
22 [36, 51] BruteForce: 0.08733000000000013 bAb: 0.010118999999999989 RelativeError: 0.0
23 [36, 39] BruteForce: 0.08618899999999963 bAb: 0.009362000000000315 RelativeError: 0.0
24 [37, 42] BruteForce: 0.0866939999999996 bAb: 0.009487000000000023 RelativeError: 0.0
25 [36, 41] BruteForce: 0.08681800000000006 bAb: 0.009696999999999623 RelativeError: 0.0
26 [37, 40] BruteForce: 0.08708699999999991 bAb: 0.009074000000000026 RelativeError: 0.0
27 [36, 43] BruteForce: 0.08759799999999984 bAb: 0.01035699999999995 RelativeError: 0.0
28 [36, 50] BruteForce: 0.08706900000000006 bAb: 0.00905800000000001 RelativeError: 0.0
29 [38, 61] BruteForce: 0.08865400000000001 bAb: 0.00990499999999983 RelativeError: 0.0
30 [37, 42] BruteForce: 0.08595099999999967 bAb: 0.010501000000000538 RelativeError: 0.0
31 [40, 46] BruteForce: 0.08710200000000068 bAb: 0.009608999999999313 RelativeError: 0.0
32 [37, 39] BruteForce: 0.08571500000000043 bAb: 0.009681999999999746 RelativeError: 0.0
33 [36, 42] BruteForce: 0.08571999999999935 bAb: 0.009872000000000547 RelativeError: 0.0
34 [36, 44] BruteForce: 0.0872799999999998 bAb: 0.00851600000000019 RelativeError: 0.0
35 [37, 58] BruteForce: 0.08718299999999957 bAb: 0.010025000000000617 RelativeError: 0.0
36 [39, 41] BruteForce: 0.08677199999999985 bAb: 0.009523999999999866 RelativeError: 0.0
37 [38, 41] BruteForce: 0.08743400000000001 bAb: 0.010031999999999819 RelativeError: 0.0
38 [36, 30] BruteForce: 0.08457199999999965 bAb: 0.010765000000000136 RelativeError: 0.0
39 [36, 33] BruteForce: 0.08551999999999982 bAb: 0.01007300000000022 RelativeError: 0.0
