0 [32, 34] BruteForce: 0.0869629999999999 fptas10: 0.05223800000000001 RelativeError: 0.0
1 [30, 63] BruteForce: 0.08997600000000006 fptas10: 0.08797800000000011 RelativeError: 0.0
2 [30, 44] BruteForce: 0.08850399999999992 fptas10: 0.05111699999999986 RelativeError: 0.0
3 [28, 37] BruteForce: 0.08481800000000006 fptas10: 0.03976499999999983 RelativeError: 0.0
4 [32, 44] BruteForce: 0.08430499999999985 fptas10: 0.04348799999999997 RelativeError: 0.0
5 [31, 41] BruteForce: 0.08569800000000027 fptas10: 0.04369599999999996 RelativeError: 0.0
6 [24, 33] BruteForce: 0.08815300000000015 fptas10: 0.046647000000000105 RelativeError: 0.0
7 [31, 41] BruteForce: 0.09025700000000025 fptas10: 0.04155400000000009 RelativeError: 0.0
8 [31, 44] BruteForce: 0.0864480000000003 fptas10: 0.06868600000000002 RelativeError: 0.0
9 [32, 31] BruteForce: 0.086341 fptas10: 0.057228999999999974 RelativeError: 0.0
10 [32, 50] BruteForce: 0.08775000000000022 fptas10: 0.060827000000000186 RelativeError: 0.0
11 [31, 36] BruteForce: 0.08991700000000025 fptas10: 0.0431919999999999 RelativeError: 0.0
12 [34, 48] BruteForce: 0.08787199999999995 fptas10: 0.08747399999999983 RelativeError: 0.0
13 [32, 35] BruteForce: 0.08636700000000008 fptas10: 0.04396599999999973 RelativeError: 0.0
14 [29, 42] BruteForce: 0.08748699999999987 fptas10: 0.04995100000000008 RelativeError: 0.0
15 [34, 42] BruteForce: 0.0920810000000003 fptas10: 0.06790099999999999 RelativeError: 0.0
16 [28, 49] BruteForce: 0.08790399999999998 fptas10: 0.050890000000000324 RelativeError: 0.0
17 [28, 46] BruteForce: 0.09068399999999999 fptas10: 0.04317100000000007 RelativeError: 0.0
18 [30, 38] BruteForce: 0.08789700000000034 fptas10: 0.04655499999999968 RelativeError: 0.0
19 [23, 29] BruteForce: 0.08521800000000024 fptas10: 0.05014300000000027 RelativeError: 0.0
20 [29, 45] BruteForce: 0.08852400000000005 fptas10: 0.050386000000000486 RelativeError: 0.0
21 [28, 38] BruteForce: 0.0912139999999999 fptas10: 0.042163999999999646 RelativeError: 0.0
22 [35, 47] BruteForce: 0.08823399999999992 fptas10: 0.04543199999999992 RelativeError: 0.0
23 [33, 41] BruteForce: 0.08419899999999991 fptas10: 0.057450999999999475 RelativeError: 0.0
24 [30, 41] BruteForce: 0.0853489999999999 fptas10: 0.06332000000000004 RelativeError: 0.0
25 [28, 36] BruteForce: 0.0887570000000002 fptas10: 0.04270200000000024 RelativeError: 0.0
26 [32, 38] BruteForce: 0.08686399999999939 fptas10: 0.05204400000000042 RelativeError: 0.0
27 [35, 49] BruteForce: 0.08712799999999987 fptas10: 0.06251600000000046 RelativeError: 0.0
28 [27, 39] BruteForce: 0.08627300000000027 fptas10: 0.053443999999999825 RelativeError: 0.0
29 [31, 31] BruteForce: 0.08904099999999993 fptas10: 0.05335900000000038 RelativeError: 0.0
30 [32, 41] BruteForce: 0.08626400000000078 fptas10: 0.06632499999999997 RelativeError: 0.0
31 [34, 36] BruteForce: 0.08282799999999924 fptas10: 0.0702430000000005 RelativeError: 0.0
32 [35, 31] BruteForce: 0.08913700000000002 fptas10: 0.03173899999999996 RelativeError: 0.0
33 [28, 45] BruteForce: 0.08647199999999966 fptas10: 0.07416900000000037 RelativeError: 0.0
34 [34, 32] BruteForce: 0.08716999999999953 fptas10: 0.04034400000000016 RelativeError: 0.0
35 [31, 39] BruteForce: 0.08927299999999949 fptas10: 0.057311000000000334 RelativeError: 0.0
36 [28, 51] BruteForce: 0.08753499999999992 fptas10: 0.08636800000000022 RelativeError: 0.0
37 [32, 33] BruteForce: 0.08814800000000034 fptas10: 0.04181300000000032 RelativeError: 0.0
38 [31, 41] BruteForce: 0.0871719999999998 fptas10: 0.04201799999999967 RelativeError: 0.0
39 [28, 48] BruteForce: 0.09133100000000027 fptas10: 0.08305600000000002 RelativeError: 0.0
