0 [40, 46] BruteForce: 0.08601900000000007 dynamic: 0.019482 RelativeError: 0.0
1 [40, 48] BruteForce: 0.08636700000000008 dynamic: 0.021305999999999825 RelativeError: 0.0
2 [47, 41] BruteForce: 0.08597799999999989 dynamic: 0.022453999999999974 RelativeError: 0.0
3 [36, 43] BruteForce: 0.08674199999999987 dynamic: 0.01568499999999995 RelativeError: 0.0
4 [37, 43] BruteForce: 0.08677800000000002 dynamic: 0.017284999999999995 RelativeError: 0.0
5 [41, 51] BruteForce: 0.08633199999999985 dynamic: 0.019342999999999888 RelativeError: 0.0
6 [39, 43] BruteForce: 0.08446500000000001 dynamic: 0.019938000000000233 RelativeError: 0.0
7 [38, 56] BruteForce: 0.08627800000000008 dynamic: 0.02272400000000019 RelativeError: 0.0
8 [41, 37] BruteForce: 0.08532900000000021 dynamic: 0.016999999999999904 RelativeError: 0.0
9 [37, 27] BruteForce: 0.08526300000000031 dynamic: 0.01686399999999999 RelativeError: 0.0
10 [40, 50] BruteForce: 0.08360400000000023 dynamic: 0.020091000000000303 RelativeError: 0.0
11 [39, 47] BruteForce: 0.08176999999999968 dynamic: 0.019137999999999877 RelativeError: 0.0
12 [39, 29] BruteForce: 0.08630699999999969 dynamic: 0.0174669999999999 RelativeError: 0.0
13 [40, 44] BruteForce: 0.08545800000000003 dynamic: 0.018725000000000325 RelativeError: 0.0
14 [41, 55] BruteForce: 0.08780799999999989 dynamic: 0.021775000000000322 RelativeError: 0.0
15 [42, 53] BruteForce: 0.08468500000000034 dynamic: 0.022302999999999962 RelativeError: 0.0
16 [39, 52] BruteForce: 0.086001 dynamic: 0.02144099999999982 RelativeError: 0.0
17 [39, 26] BruteForce: 0.08577199999999996 dynamic: 0.016477000000000075 RelativeError: 0.0
18 [38, 38] BruteForce: 0.08749200000000013 dynamic: 0.016826000000000008 RelativeError: 0.0
19 [39, 40] BruteForce: 0.08577600000000007 dynamic: 0.01989200000000002 RelativeError: 0.0
20 [39, 64] BruteForce: 0.08803799999999962 dynamic: 0.022404000000000313 RelativeError: 0.0
21 [37, 48] BruteForce: 0.08654399999999995 dynamic: 0.023546000000000067 RelativeError: 0.0
22 [39, 41] BruteForce: 0.08559099999999997 dynamic: 0.021395000000000053 RelativeError: 0.0
23 [36, 46] BruteForce: 0.08649799999999974 dynamic: 0.02025699999999997 RelativeError: 0.0
24 [42, 50] BruteForce: 0.08660500000000004 dynamic: 0.02282099999999998 RelativeError: 0.0
25 [39, 32] BruteForce: 0.08613800000000005 dynamic: 0.01670600000000011 RelativeError: 0.0
26 [42, 37] BruteForce: 0.08599200000000007 dynamic: 0.0192840000000003 RelativeError: 0.0
27 [37, 52] BruteForce: 0.08586800000000006 dynamic: 0.02058099999999996 RelativeError: 0.0
28 [36, 54] BruteForce: 0.08509999999999973 dynamic: 0.02274499999999957 RelativeError: 0.0
29 [40, 42] BruteForce: 0.08668500000000012 dynamic: 0.022076999999999458 RelativeError: 0.0
30 [42, 45] BruteForce: 0.08473299999999995 dynamic: 0.01903800000000011 RelativeError: 0.0
31 [42, 57] BruteForce: 0.08417299999999983 dynamic: 0.0199429999999996 RelativeError: 0.0
32 [38, 47] BruteForce: 0.08510400000000029 dynamic: 0.019428000000000445 RelativeError: 0.0
33 [40, 58] BruteForce: 0.08514399999999966 dynamic: 0.022154999999999703 RelativeError: 0.0
34 [38, 49] BruteForce: 0.08717499999999934 dynamic: 0.021078000000000152 RelativeError: 0.0
35 [40, 42] BruteForce: 0.08570299999999964 dynamic: 0.01825899999999958 RelativeError: 0.0
36 [41, 29] BruteForce: 0.08520199999999978 dynamic: 0.014440999999999704 RelativeError: 0.0
37 [40, 37] BruteForce: 0.08401600000000009 dynamic: 0.02166300000000021 RelativeError: 0.0
38 [39, 44] BruteForce: 0.08622300000000038 dynamic: 0.022854999999999848 RelativeError: 0.0
39 [37, 53] BruteForce: 0.08418700000000001 dynamic: 0.0210360000000005 RelativeError: 0.0
