0 [44, 58] BruteForce: 0.0836260000000002 heuristic: 0.0011499999999999844 RelativeError: 0.017241379310344827
1 [39, 67] BruteForce: 0.08338500000000004 heuristic: 0.0013380000000000614 RelativeError: 0.014925373134328358
2 [41, 89] BruteForce: 0.08270200000000005 heuristic: 0.0012319999999998998 RelativeError: 0.056179775280898875
3 [40, 81] BruteForce: 0.0851329999999999 heuristic: 0.0011550000000000171 RelativeError: 0.04938271604938271
4 [38, 60] BruteForce: 0.08491599999999977 heuristic: 0.0010719999999999619 RelativeError: 0.016666666666666666
5 [42, 95] BruteForce: 0.08477800000000002 heuristic: 0.0015540000000000553 RelativeError: 0.042105263157894736
6 [38, 65] BruteForce: 0.08421699999999976 heuristic: 0.0010189999999998811 RelativeError: 0.015384615384615385
7 [39, 79] BruteForce: 0.08509900000000004 heuristic: 0.0010740000000000194 RelativeError: 0.0759493670886076
8 [38, 58] BruteForce: 0.08198399999999983 heuristic: 0.0010889999999998956 RelativeError: 0.017241379310344827
9 [38, 58] BruteForce: 0.08343100000000003 heuristic: 0.0010719999999997398 RelativeError: 0.06896551724137931
10 [40, 47] BruteForce: 0.08287800000000001 heuristic: 0.0010369999999997326 RelativeError: 0.02127659574468085
11 [36, 91] BruteForce: 0.08614699999999997 heuristic: 0.001443000000000083 RelativeError: 0.07692307692307693
12 [37, 115] BruteForce: 0.08393400000000018 heuristic: 0.0012660000000002114 RelativeError: 0.0782608695652174
13 [37, 97] BruteForce: 0.08614999999999995 heuristic: 0.0012129999999999086 RelativeError: 0.05154639175257732
14 [39, 99] BruteForce: 0.08486599999999989 heuristic: 0.0012650000000000716 RelativeError: 0.020202020202020204
15 [44, 72] BruteForce: 0.08496999999999977 heuristic: 0.001154999999999795 RelativeError: 0.027777777777777776
16 [42, 51] BruteForce: 0.08623899999999995 heuristic: 0.001438999999999968 RelativeError: 0.0196078431372549
17 [39, 86] BruteForce: 0.08437799999999962 heuristic: 0.0015570000000000306 RelativeError: 0.09302325581395349
18 [37, 66] BruteForce: 0.08446600000000037 heuristic: 0.0010129999999999306 RelativeError: 0.045454545454545456
19 [40, 95] BruteForce: 0.08599900000000016 heuristic: 0.001278999999999808 RelativeError: 0.031578947368421054
20 [41, 64] BruteForce: 0.08605600000000013 heuristic: 0.0011090000000000266 RelativeError: 0.03125
21 [41, 77] BruteForce: 0.08674399999999993 heuristic: 0.0013689999999999536 RelativeError: 0.07792207792207792
22 [41, 92] BruteForce: 0.08637999999999968 heuristic: 0.001190999999999942 RelativeError: 0.021739130434782608
23 [42, 83] BruteForce: 0.08474899999999996 heuristic: 0.0012150000000001882 RelativeError: 0.024096385542168676
24 [38, 90] BruteForce: 0.0841940000000001 heuristic: 0.0011369999999999436 RelativeError: 0.022222222222222223
25 [44, 66] BruteForce: 0.08513400000000004 heuristic: 0.0012690000000001866 RelativeError: 0.015151515151515152
26 [41, 93] BruteForce: 0.08362299999999978 heuristic: 0.0011660000000000004 RelativeError: 0.03225806451612903
27 [43, 104] BruteForce: 0.08404699999999998 heuristic: 0.0011660000000000004 RelativeError: 0.009615384615384616
28 [37, 88] BruteForce: 0.08528700000000011 heuristic: 0.0014520000000000088 RelativeError: 0.09090909090909091
29 [42, 61] BruteForce: 0.0868009999999999 heuristic: 0.0014600000000002389 RelativeError: 0.01639344262295082
30 [40, 85] BruteForce: 0.08671400000000018 heuristic: 0.0013330000000002507 RelativeError: 0.058823529411764705
31 [41, 74] BruteForce: 0.08613899999999974 heuristic: 0.0012520000000000309 RelativeError: 0.04054054054054054
32 [41, 100] BruteForce: 0.08454600000000001 heuristic: 0.0010150000000002102 RelativeError: 0.02
33 [43, 39] BruteForce: 0.08448999999999973 heuristic: 0.001332000000000555 RelativeError: 0.02564102564102564
34 [36, 79] BruteForce: 0.08495700000000017 heuristic: 0.0010099999999999554 RelativeError: 0.10126582278481013
35 [39, 61] BruteForce: 0.08456500000000045 heuristic: 0.0010270000000005552 RelativeError: 0.03278688524590164
36 [40, 77] BruteForce: 0.08715399999999995 heuristic: 0.0011289999999997136 RelativeError: 0.07792207792207792
37 [42, 70] BruteForce: 0.08649500000000021 heuristic: 0.001174999999999926 RelativeError: 0.07142857142857142
38 [42, 66] BruteForce: 0.08394600000000008 heuristic: 0.00214299999999934 RelativeError: 0.030303030303030304
39 [37, 63] BruteForce: 0.08367900000000006 heuristic: 0.0011939999999999173 RelativeError: 0.015873015873015872
