9400 [32, 3620] BruteForce: 0 fptas10: 7.259958 RelativeError: 0.00027624309392265195
9401 [32, 3919] BruteForce: 0 fptas10: 6.74573 RelativeError: 0.0
9402 [32, 3830] BruteForce: 0 fptas10: 7.091306000000001 RelativeError: 0.0013054830287206266
9403 [32, 3561] BruteForce: 0 fptas10: 7.114704 RelativeError: 0.0005616399887672002
9404 [32, 3627] BruteForce: 0 fptas10: 9.882265 RelativeError: 0.0011028398125172319
9405 [32, 449] BruteForce: 0 fptas10: 3.7399070000000023 RelativeError: 0.0
9406 [32, 3102] BruteForce: 0 fptas10: 5.349035000000001 RelativeError: 0.0016118633139909735
9407 [32, 4025] BruteForce: 0 fptas10: 7.808154000000002 RelativeError: 0.0014906832298136647
9408 [32, 3797] BruteForce: 0 fptas10: 7.466191000000002 RelativeError: 0.0015801948907031868
9409 [32, 3832] BruteForce: 0 fptas10: 7.4888679999999965 RelativeError: 0.0018267223382045928
9410 [32, 3959] BruteForce: 0 fptas10: 8.262698 RelativeError: 0.0
9411 [32, 3469] BruteForce: 0 fptas10: 6.513238000000001 RelativeError: 0.0005765350245027386
9412 [32, 3440] BruteForce: 0 fptas10: 6.2311440000000005 RelativeError: 0.003197674418604651
9413 [32, 4210] BruteForce: 0 fptas10: 8.132144000000011 RelativeError: 0.00023752969121140142
9414 [32, 3709] BruteForce: 0 fptas10: 7.556321999999994 RelativeError: 0.0005392289026691831
9415 [32, 4008] BruteForce: 0 fptas10: 7.511876000000001 RelativeError: 0.00124750499001996
9416 [32, 3961] BruteForce: 0 fptas10: 9.029309999999995 RelativeError: 0.0025246149962130774
9417 [32, 3389] BruteForce: 0 fptas10: 5.975808000000001 RelativeError: 0.0005901445854234287
9418 [32, 3837] BruteForce: 0 fptas10: 8.36278900000002 RelativeError: 0.001563721657544957
9419 [32, 3428] BruteForce: 0 fptas10: 6.829335000000015 RelativeError: 0.00029171528588098014
9420 [32, 3681] BruteForce: 0 fptas10: 7.403771000000006 RelativeError: 0.0005433306166802499
9421 [32, 3459] BruteForce: 0 fptas10: 6.166920000000005 RelativeError: 0.0011564035848511131
9422 [32, 3806] BruteForce: 0 fptas10: 8.481925999999987 RelativeError: 0.0002627430373095113
9423 [32, 4196] BruteForce: 0 fptas10: 8.480601000000007 RelativeError: 0.00023832221163012392
9424 [32, 3474] BruteForce: 0 fptas10: 6.518838000000017 RelativeError: 0.0020149683362118594
9425 [32, 4313] BruteForce: 0 fptas10: 7.9555229999999995 RelativeError: 0.0004637143519591931
9426 [32, 4090] BruteForce: 0 fptas10: 7.137205999999992 RelativeError: 0.0007334963325183374
9427 [32, 3851] BruteForce: 0 fptas10: 7.627675000000011 RelativeError: 0.001038691249026227
9428 [32, 3762] BruteForce: 0 fptas10: 6.716836000000001 RelativeError: 0.0007974481658692185
9429 [32, 3581] BruteForce: 0 fptas10: 7.306960000000004 RelativeError: 0.0005585032113934655
9430 [32, 3322] BruteForce: 0 fptas10: 6.686629000000011 RelativeError: 0.00030102347983142685
9431 [32, 3460] BruteForce: 0 fptas10: 5.8641680000000065 RelativeError: 0.0008670520231213873
9432 [32, 4030] BruteForce: 0 fptas10: 7.784983000000011 RelativeError: 0.0007444168734491315
9433 [32, 3685] BruteForce: 0 fptas10: 6.927373999999986 RelativeError: 0.000542740841248304
9434 [32, 3881] BruteForce: 0 fptas10: 6.532587000000007 RelativeError: 0.001545993300695697
9435 [32, 3243] BruteForce: 0 fptas10: 5.669768000000005 RelativeError: 0.0012334258402713536
9436 [32, 4185] BruteForce: 0 fptas10: 6.84254500000003 RelativeError: 0.00047789725209080046
9437 [32, 3097] BruteForce: 0 fptas10: 5.253362999999979 RelativeError: 0.0019373587342589602
9438 [32, 3492] BruteForce: 0 fptas10: 7.479575000000011 RelativeError: 0.000286368843069874
9439 [32, 2969] BruteForce: 0 fptas10: 6.061632999999972 RelativeError: 0.0020208824520040417
9440 [32, 3336] BruteForce: 0 fptas10: 5.847669999999994 RelativeError: 0.00029976019184652276
9441 [32, 3890] BruteForce: 0 fptas10: 7.366002999999978 RelativeError: 0.0012853470437017994
9442 [32, 3890] BruteForce: 0 fptas10: 6.407327000000009 RelativeError: 0.0017994858611825194
9443 [32, 3128] BruteForce: 0 fptas10: 5.518616000000009 RelativeError: 0.0009590792838874681
9444 [32, 3666] BruteForce: 0 fptas10: 6.755210999999974 RelativeError: 0.001363884342607747
9445 [32, 3544] BruteForce: 0 fptas10: 6.592325999999957 RelativeError: 0.0008465011286681715
9446 [32, 3876] BruteForce: 0 fptas10: 6.203988999999979 RelativeError: 0.00025799793601651185
9447 [32, 3467] BruteForce: 0 fptas10: 6.298932000000036 RelativeError: 0.0023074704355350445
9448 [32, 4042] BruteForce: 0 fptas10: 7.1327249999999935 RelativeError: 0.00024740227610094015
9449 [32, 3709] BruteForce: 0 fptas10: 7.68927199999996 RelativeError: 0.0016176867080075492
