9350 [30, 2875] BruteForce: 0 fptas10: 4.784439 RelativeError: 0.001391304347826087
9351 [30, 3327] BruteForce: 0 fptas10: 6.555683 RelativeError: 0.0024045686804929365
9352 [30, 3463] BruteForce: 0 fptas10: 6.905588 RelativeError: 0.0
9353 [30, 3987] BruteForce: 0 fptas10: 7.120699000000002 RelativeError: 0.001003260596940055
9354 [30, 3771] BruteForce: 0 fptas10: 7.151849000000002 RelativeError: 0.0
9355 [30, 3968] BruteForce: 0 fptas10: 8.075332000000003 RelativeError: 0.0017641129032258064
9356 [30, 3757] BruteForce: 0 fptas10: 7.493581000000006 RelativeError: 0.0005323396326856535
9357 [30, 3659] BruteForce: 0 fptas10: 7.9309259999999995 RelativeError: 0.0010931948619841486
9358 [30, 3773] BruteForce: 0 fptas10: 6.6978089999999995 RelativeError: 0.0005300821627352239
9359 [30, 3786] BruteForce: 0 fptas10: 6.428939 RelativeError: 0.0018489170628631802
9360 [30, 3206] BruteForce: 0 fptas10: 6.084897000000012 RelativeError: 0.00031191515907673113
9361 [30, 4039] BruteForce: 0 fptas10: 7.665777999999989 RelativeError: 0.0
9362 [30, 3059] BruteForce: 0 fptas10: 5.580669 RelativeError: 0.0
9363 [30, 3255] BruteForce: 0 fptas10: 6.369664 RelativeError: 0.002457757296466974
9364 [30, 2965] BruteForce: 0 fptas10: 4.736556999999991 RelativeError: 0.0006745362563237774
9365 [30, 3447] BruteForce: 0 fptas10: 6.597743000000008 RelativeError: 0.0011604293588627793
9366 [30, 3456] BruteForce: 0 fptas10: 7.099790999999996 RelativeError: 0.00028935185185185184
9367 [30, 3478] BruteForce: 0 fptas10: 6.656222999999997 RelativeError: 0.0008625646923519264
9368 [30, 3272] BruteForce: 0 fptas10: 6.179582999999994 RelativeError: 0.001528117359413203
9369 [30, 4382] BruteForce: 0 fptas10: 9.374043999999998 RelativeError: 0.0006846188954815153
9370 [30, 4013] BruteForce: 0 fptas10: 7.766389000000004 RelativeError: 0.00049838026414154
9371 [30, 3738] BruteForce: 0 fptas10: 7.631812999999994 RelativeError: 0.00026752273943285177
9372 [30, 3860] BruteForce: 0 fptas10: 5.837052999999997 RelativeError: 0.0012953367875647669
9373 [30, 3399] BruteForce: 0 fptas10: 7.649737999999985 RelativeError: 0.0
9374 [30, 3302] BruteForce: 0 fptas10: 6.362167999999997 RelativeError: 0.0003028467595396729
9375 [30, 3394] BruteForce: 0 fptas10: 6.824200999999988 RelativeError: 0.0002946375957572186
9376 [30, 3745] BruteForce: 0 fptas10: 7.104738999999995 RelativeError: 0.000534045393858478
9377 [30, 3624] BruteForce: 0 fptas10: 6.993326999999994 RelativeError: 0.0002759381898454746
9378 [30, 3605] BruteForce: 0 fptas10: 6.1078270000000146 RelativeError: 0.0005547850208044383
9379 [30, 3399] BruteForce: 0 fptas10: 6.533260000000013 RelativeError: 0.0011768167107972932
9380 [30, 399] BruteForce: 0 fptas10: 5.575721000000016 RelativeError: 0.0
9381 [30, 3711] BruteForce: 0 fptas10: 7.164282999999983 RelativeError: 0.0
9382 [30, 3875] BruteForce: 0 fptas10: 7.398246 RelativeError: 0.0
9383 [30, 3598] BruteForce: 0 fptas10: 7.09101800000002 RelativeError: 0.00027793218454697053
9384 [30, 4175] BruteForce: 0 fptas10: 7.7086909999999875 RelativeError: 0.0
9385 [30, 3944] BruteForce: 0 fptas10: 7.420583999999991 RelativeError: 0.0002535496957403651
9386 [30, 3674] BruteForce: 0 fptas10: 6.789636000000002 RelativeError: 0.00027218290691344586
9387 [30, 3896] BruteForce: 0 fptas10: 6.676264999999972 RelativeError: 0.0002566735112936345
9388 [30, 3608] BruteForce: 0 fptas10: 6.216853000000015 RelativeError: 0.0002771618625277162
9389 [30, 3139] BruteForce: 0 fptas10: 6.9075449999999705 RelativeError: 0.0012742911755336094
9390 [30, 3501] BruteForce: 0 fptas10: 6.457712000000015 RelativeError: 0.001713796058269066
9391 [30, 3310] BruteForce: 0 fptas10: 6.136143000000004 RelativeError: 0.0015105740181268882
9392 [30, 3314] BruteForce: 0 fptas10: 6.333455000000015 RelativeError: 0.00030175015087507544
9393 [30, 3232] BruteForce: 0 fptas10: 6.413815 RelativeError: 0.0003094059405940594
9394 [30, 3716] BruteForce: 0 fptas10: 5.947266000000013 RelativeError: 0.001883745963401507
9395 [30, 3413] BruteForce: 0 fptas10: 6.250737000000015 RelativeError: 0.0005859947260474656
9396 [30, 4005] BruteForce: 0 fptas10: 6.638857999999971 RelativeError: 0.00149812734082397
9397 [30, 3392] BruteForce: 0 fptas10: 5.730780999999979 RelativeError: 0.00029481132075471697
9398 [30, 3477] BruteForce: 0 fptas10: 7.758170000000007 RelativeError: 0.001725625539257981
9399 [30, 3730] BruteForce: 0 fptas10: 7.216888999999981 RelativeError: 0.0013404825737265416
