9250 [25, 2427] BruteForce: 0 fptas5: 7.39072 RelativeError: 0.0008240626287597857
9251 [25, 2846] BruteForce: 0 fptas5: 8.327002 RelativeError: 0.00035137034434293746
9252 [25, 2538] BruteForce: 0 fptas5: 7.484131000000001 RelativeError: 0.0003940110323089047
9253 [25, 3370] BruteForce: 0 fptas5: 5.159528999999999 RelativeError: 0.0008902077151335311
9254 [25, 2884] BruteForce: 0 fptas5: 7.040343000000004 RelativeError: 0.00034674063800277393
9255 [25, 2595] BruteForce: 0 fptas5: 7.270179000000006 RelativeError: 0.0
9256 [25, 3048] BruteForce: 0 fptas5: 9.180568000000001 RelativeError: 0.00032808398950131233
9257 [25, 2717] BruteForce: 0 fptas5: 7.978422000000002 RelativeError: 0.0
9258 [25, 3290] BruteForce: 0 fptas5: 9.612271999999997 RelativeError: 0.00030395136778115504
9259 [25, 2581] BruteForce: 0 fptas5: 5.32923000000001 RelativeError: 0.0007748934521503294
9260 [25, 2766] BruteForce: 0 fptas5: 7.345571000000007 RelativeError: 0.0018076644974692696
9261 [25, 2897] BruteForce: 0 fptas5: 9.272503 RelativeError: 0.0
9262 [25, 2597] BruteForce: 0 fptas5: 7.0335210000000075 RelativeError: 0.0
9263 [25, 2564] BruteForce: 0 fptas5: 8.534858999999997 RelativeError: 0.001170046801872075
9264 [25, 3075] BruteForce: 0 fptas5: 8.082720999999992 RelativeError: 0.0006504065040650406
9265 [25, 2666] BruteForce: 0 fptas5: 7.7863749999999925 RelativeError: 0.00037509377344336085
9266 [25, 3029] BruteForce: 0 fptas5: 7.804985000000002 RelativeError: 0.0
9267 [25, 3341] BruteForce: 0 fptas5: 5.642530999999991 RelativeError: 0.0017958695001496557
9268 [25, 3062] BruteForce: 0 fptas5: 9.208679000000018 RelativeError: 0.0009797517962116264
9269 [25, 3060] BruteForce: 0 fptas5: 5.576562999999993 RelativeError: 0.000326797385620915
9270 [25, 3307] BruteForce: 0 fptas5: 5.226089000000002 RelativeError: 0.0012095554883580285
9271 [25, 2758] BruteForce: 0 fptas5: 7.769040999999987 RelativeError: 0.0010877447425670776
9272 [25, 2710] BruteForce: 0 fptas5: 8.771839 RelativeError: 0.00036900369003690036
9273 [25, 2934] BruteForce: 0 fptas5: 9.780093999999991 RelativeError: 0.00034083162917518747
9274 [25, 3239] BruteForce: 0 fptas5: 9.18122600000001 RelativeError: 0.0
9275 [25, 3283] BruteForce: 0 fptas5: 7.737683000000004 RelativeError: 0.0
9276 [25, 2937] BruteForce: 0 fptas5: 8.393130000000014 RelativeError: 0.0
9277 [25, 3582] BruteForce: 0 fptas5: 4.979694999999992 RelativeError: 0.00027917364600781687
9278 [25, 3442] BruteForce: 0 fptas5: 5.463441000000017 RelativeError: 0.0008715862870424172
9279 [25, 2733] BruteForce: 0 fptas5: 7.5404100000000085 RelativeError: 0.0007317965605561653
9280 [25, 2655] BruteForce: 0 fptas5: 8.592639999999989 RelativeError: 0.0
9281 [25, 3058] BruteForce: 0 fptas5: 8.555161000000027 RelativeError: 0.0003270111183780249
9282 [25, 2694] BruteForce: 0 fptas5: 6.87832499999999 RelativeError: 0.0003711952487008166
9283 [25, 299] BruteForce: 0 fptas5: 3.400466000000023 RelativeError: 0.0
9284 [25, 2953] BruteForce: 0 fptas5: 10.00726400000002 RelativeError: 0.0006772773450728074
9285 [25, 3071] BruteForce: 0 fptas5: 9.296785999999997 RelativeError: 0.0006512536633018561
9286 [25, 3024] BruteForce: 0 fptas5: 8.947532000000024 RelativeError: 0.00033068783068783067
9287 [25, 3088] BruteForce: 0 fptas5: 7.558624000000009 RelativeError: 0.0003238341968911917
9288 [25, 2971] BruteForce: 0 fptas5: 6.737639999999999 RelativeError: 0.0006731740154830024
9289 [25, 2543] BruteForce: 0 fptas5: 7.385021999999992 RelativeError: 0.0007864726700747149
9290 [25, 2791] BruteForce: 0 fptas5: 8.22684300000003 RelativeError: 0.0
9291 [25, 3039] BruteForce: 0 fptas5: 7.105659000000003 RelativeError: 0.0
9292 [25, 2956] BruteForce: 0 fptas5: 8.428861999999981 RelativeError: 0.00033829499323410016
9293 [25, 3210] BruteForce: 0 fptas5: 8.095821999999998 RelativeError: 0.00031152647975077883
9294 [25, 2746] BruteForce: 0 fptas5: 9.543590999999992 RelativeError: 0.0003641660597232338
9295 [25, 3170] BruteForce: 0 fptas5: 8.624014999999986 RelativeError: 0.0003154574132492114
9296 [25, 3297] BruteForce: 0 fptas5: 9.319717000000026 RelativeError: 0.0
9297 [25, 3135] BruteForce: 0 fptas5: 8.881034 RelativeError: 0.0
9298 [25, 3011] BruteForce: 0 fptas5: 8.993591999999978 RelativeError: 0.0006642311524410495
9299 [25, 2901] BruteForce: 0 fptas5: 8.18230699999998 RelativeError: 0.0006894174422612892
