9200 [22, 2625] BruteForce: 0 bAb: 1.4911020000000001 RelativeError: 0.0
9201 [22, 2215] BruteForce: 0 bAb: 1.1424969999999997 RelativeError: 0.0
9202 [22, 2479] BruteForce: 0 bAb: 2.437116 RelativeError: 0.0
9203 [22, 2474] BruteForce: 0 bAb: 0.2934720000000004 RelativeError: 0.0
9204 [22, 2877] BruteForce: 0 bAb: 0.8602449999999999 RelativeError: 0.0
9205 [22, 2581] BruteForce: 0 bAb: 10.179954 RelativeError: 0.0
9206 [22, 2401] BruteForce: 0 bAb: 0.46547299999999936 RelativeError: 0.0
9207 [22, 2647] BruteForce: 0 bAb: 0.45855599999999797 RelativeError: 0.0
9208 [22, 2425] BruteForce: 0 bAb: 1.4413139999999984 RelativeError: 0.0
9209 [22, 2265] BruteForce: 0 bAb: 0.489806999999999 RelativeError: 0.0
9210 [22, 2576] BruteForce: 0 bAb: 1.230278000000002 RelativeError: 0.0
9211 [22, 2525] BruteForce: 0 bAb: 1.4659419999999983 RelativeError: 0.0
9212 [22, 2561] BruteForce: 0 bAb: 3.1540800000000004 RelativeError: 0.0
9213 [22, 2677] BruteForce: 0 bAb: 1.806284999999999 RelativeError: 0.0
9214 [22, 2442] BruteForce: 0 bAb: 0.8936980000000005 RelativeError: 0.0
9215 [22, 2646] BruteForce: 0 bAb: 0.25743300000000247 RelativeError: 0.0
9216 [22, 1868] BruteForce: 0 bAb: 0.6500769999999996 RelativeError: 0.0
9217 [22, 2505] BruteForce: 0 bAb: 1.2564400000000013 RelativeError: 0.0
9218 [22, 2244] BruteForce: 0 bAb: 0.8584700000000005 RelativeError: 0.0
9219 [22, 2345] BruteForce: 0 bAb: 1.8413140000000006 RelativeError: 0.0
9220 [22, 2651] BruteForce: 0 bAb: 1.6887929999999969 RelativeError: 0.0
9221 [22, 3032] BruteForce: 0 bAb: 1.8210189999999997 RelativeError: 0.0
9222 [22, 2393] BruteForce: 0 bAb: 6.633175999999999 RelativeError: 0.0
9223 [22, 2811] BruteForce: 0 bAb: 2.177847 RelativeError: 0.0
9224 [22, 2315] BruteForce: 0 bAb: 0.35936800000000346 RelativeError: 0.0
9225 [22, 2564] BruteForce: 0 bAb: 2.5240519999999975 RelativeError: 0.0
9226 [22, 2250] BruteForce: 0 bAb: 4.456209000000001 RelativeError: 0.0
9227 [22, 2453] BruteForce: 0 bAb: 2.126128999999999 RelativeError: 0.0
9228 [22, 2520] BruteForce: 0 bAb: 0.6230830000000012 RelativeError: 0.0
9229 [22, 2157] BruteForce: 0 bAb: 8.839165000000001 RelativeError: 0.0
9230 [22, 2633] BruteForce: 0 bAb: 1.491420000000005 RelativeError: 0.0
9231 [22, 2260] BruteForce: 0 bAb: 3.1846379999999925 RelativeError: 0.0
9232 [22, 2318] BruteForce: 0 bAb: 0.37337800000000243 RelativeError: 0.0
9233 [22, 2405] BruteForce: 0 bAb: 3.842694999999992 RelativeError: 0.0
9234 [22, 2626] BruteForce: 0 bAb: 0.6367569999999887 RelativeError: 0.0
9235 [22, 2827] BruteForce: 0 bAb: 1.0703560000000039 RelativeError: 0.0
9236 [22, 2358] BruteForce: 0 bAb: 12.342228000000006 RelativeError: 0.0
9237 [22, 249] BruteForce: 0 bAb: 0.029173000000000116 RelativeError: 0.0
9238 [22, 2920] BruteForce: 0 bAb: 2.1166609999999935 RelativeError: 0.0
9239 [22, 2476] BruteForce: 0 bAb: 5.253456 RelativeError: 0.0
9240 [22, 2069] BruteForce: 0 bAb: 0.6731910000000028 RelativeError: 0.0
9241 [22, 2486] BruteForce: 0 bAb: 0.5763069999999999 RelativeError: 0.0
9242 [22, 2673] BruteForce: 0 bAb: 4.560941999999997 RelativeError: 0.0
9243 [22, 2570] BruteForce: 0 bAb: 1.0922449999999913 RelativeError: 0.0
9244 [22, 2956] BruteForce: 0 bAb: 0.3726249999999993 RelativeError: 0.0
9245 [22, 2082] BruteForce: 0 bAb: 2.952600999999987 RelativeError: 0.0
9246 [22, 2915] BruteForce: 0 bAb: 0.9286190000000119 RelativeError: 0.0
9247 [22, 2555] BruteForce: 0 bAb: 0.4440969999999993 RelativeError: 0.0
9248 [22, 2582] BruteForce: 0 bAb: 1.4226139999999958 RelativeError: 0.0
9249 [22, 2306] BruteForce: 0 bAb: 3.149515000000008 RelativeError: 0.0
