9400 [32, 3620] BruteForce: 0 generic: 15.907871 RelativeError: 0.9281767955801105
9401 [32, 3919] BruteForce: 0 generic: 15.410664000000004 RelativeError: 0.939270221995407
9402 [32, 3830] BruteForce: 0 generic: 15.862490000000001 RelativeError: 0.06919060052219321
9403 [32, 3561] BruteForce: 0 generic: 16.169731 RelativeError: 0.3100252737994945
9404 [32, 3627] BruteForce: 0 generic: 15.215665999999999 RelativeError: 0.6724565756823822
9405 [32, 449] BruteForce: 0 generic: 15.927639 RelativeError: 0.31403118040089084
9406 [32, 3102] BruteForce: 0 generic: 16.359740000000002 RelativeError: 0.549645390070922
9407 [32, 4025] BruteForce: 0 generic: 16.265757000000008 RelativeError: 0.09043478260869565
9408 [32, 3797] BruteForce: 0 generic: 15.745483000000007 RelativeError: 0.9049249407426916
9409 [32, 3832] BruteForce: 0 generic: 16.171294000000017 RelativeError: 0.5741127348643006
9410 [32, 3959] BruteForce: 0 generic: 16.108497999999997 RelativeError: 0.4387471583733266
9411 [32, 3469] BruteForce: 0 generic: 16.10768200000001 RelativeError: 0.7019313923320841
9412 [32, 3440] BruteForce: 0 generic: 16.325188999999995 RelativeError: 0.5843023255813954
9413 [32, 4210] BruteForce: 0 generic: 15.802043999999995 RelativeError: 0.10760095011876485
9414 [32, 3709] BruteForce: 0 generic: 16.17025800000002 RelativeError: 0.2634133189538959
9415 [32, 4008] BruteForce: 0 generic: 15.866061999999971 RelativeError: 0.10878243512974052
9416 [32, 3961] BruteForce: 0 generic: 15.93155900000005 RelativeError: 0.77026003534461
9417 [32, 3389] BruteForce: 0 generic: 14.885593000000028 RelativeError: 0.5514901150781941
9418 [32, 3837] BruteForce: 0 generic: 15.811981000000003 RelativeError: 0.05629397967161845
9419 [32, 3428] BruteForce: 0 generic: 15.981095000000039 RelativeError: 0.040840140023337225
9420 [32, 3681] BruteForce: 0 generic: 18.912846000000002 RelativeError: 1.0
9421 [32, 3459] BruteForce: 0 generic: 15.03798999999998 RelativeError: 0.98438855160451
9422 [32, 3806] BruteForce: 0 generic: 15.625279999999975 RelativeError: 0.14450867052023122
9423 [32, 4196] BruteForce: 0 generic: 15.975636000000009 RelativeError: 0.24642516682554813
9424 [32, 3474] BruteForce: 0 generic: 15.545255999999995 RelativeError: 0.0947035118019574
9425 [32, 4313] BruteForce: 0 generic: 15.903990000000022 RelativeError: 0.36702990957570136
9426 [32, 4090] BruteForce: 0 generic: 15.033258999999987 RelativeError: 0.03154034229828851
9427 [32, 3851] BruteForce: 0 generic: 15.846798999999976 RelativeError: 0.27161776162035833
9428 [32, 3762] BruteForce: 0 generic: 16.174894999999992 RelativeError: 0.905103668261563
9429 [32, 3581] BruteForce: 0 generic: 15.825137999999981 RelativeError: 0.043842502094387045
9430 [32, 3322] BruteForce: 0 generic: 16.343743000000018 RelativeError: 0.7495484647802528
9431 [32, 3460] BruteForce: 0 generic: 16.053406999999993 RelativeError: 0.49017341040462425
9432 [32, 4030] BruteForce: 0 generic: 16.29386100000005 RelativeError: 0.21563275434243176
9433 [32, 3685] BruteForce: 0 generic: 15.927868999999987 RelativeError: 0.8263229308005428
9434 [32, 3881] BruteForce: 0 generic: 15.674241000000052 RelativeError: 0.3166709610925019
9435 [32, 3243] BruteForce: 0 generic: 16.069758999999976 RelativeError: 0.7187789084181314
9436 [32, 4185] BruteForce: 0 generic: 15.891203000000019 RelativeError: 0.032735961768219836
9437 [32, 3097] BruteForce: 0 generic: 15.778147999999987 RelativeError: 0.7106877623506619
9438 [32, 3492] BruteForce: 0 generic: 15.925486999999976 RelativeError: 0.5257731958762887
9439 [32, 2969] BruteForce: 0 generic: 15.471080000000029 RelativeError: 0.49477938699898955
9440 [32, 3336] BruteForce: 0 generic: 16.50669000000005 RelativeError: 0.8884892086330936
9441 [32, 3890] BruteForce: 0 generic: 14.310149000000024 RelativeError: 0.15784061696658097
9442 [32, 3890] BruteForce: 0 generic: 15.714351000000079 RelativeError: 0.49383033419023137
9443 [32, 3128] BruteForce: 0 generic: 15.886574999999993 RelativeError: 0.43861892583120204
9444 [32, 3666] BruteForce: 0 generic: 14.949737999999911 RelativeError: 0.31642116748499727
9445 [32, 3544] BruteForce: 0 generic: 16.09135200000003 RelativeError: 0.2406884875846501
9446 [32, 3876] BruteForce: 0 generic: 16.402507000000014 RelativeError: 0.07739938080495357
9447 [32, 3467] BruteForce: 0 generic: 16.036080000000084 RelativeError: 0.7597346408999135
9448 [32, 4042] BruteForce: 0 generic: 15.93883100000005 RelativeError: 0.32706580900544285
9449 [32, 3709] BruteForce: 0 generic: 15.754966999999965 RelativeError: 0.2229711512537072
