9550 [40, 4068] BruteForce: 0 generic: 6.558747 RelativeError: 0.20599803343166176
9551 [40, 4454] BruteForce: 0 generic: 6.285138000000001 RelativeError: 0.6991468343062416
9552 [40, 5023] BruteForce: 0 generic: 6.753999999999998 RelativeError: 0.02568186342823014
9553 [40, 5386] BruteForce: 0 generic: 6.340789000000001 RelativeError: 0.4463423691050873
9554 [40, 4995] BruteForce: 0 generic: 6.262039999999999 RelativeError: 0.2088088088088088
9555 [40, 3617] BruteForce: 0 generic: 6.074421000000001 RelativeError: 0.7456455626209566
9556 [40, 4569] BruteForce: 0 generic: 6.629515000000005 RelativeError: 0.8030203545633617
9557 [40, 4660] BruteForce: 0 generic: 5.725795000000005 RelativeError: 1.0
9558 [40, 4449] BruteForce: 0 generic: 6.128848999999995 RelativeError: 0.9730276466621712
9559 [40, 4069] BruteForce: 0 generic: 6.558092000000002 RelativeError: 0.44605554190218727
9560 [40, 4587] BruteForce: 0 generic: 5.354073 RelativeError: 0.22476564203182908
9561 [40, 4544] BruteForce: 0 generic: 5.988016999999999 RelativeError: 0.3226232394366197
9562 [40, 4245] BruteForce: 0 generic: 6.370021999999992 RelativeError: 0.8379269729093051
9563 [40, 3761] BruteForce: 0 generic: 7.304096000000001 RelativeError: 1.0
9564 [40, 4231] BruteForce: 0 generic: 6.007832000000008 RelativeError: 0.8709524935003545
9565 [40, 4656] BruteForce: 0 generic: 6.263547000000003 RelativeError: 0.7680412371134021
9566 [40, 5039] BruteForce: 0 generic: 6.2621170000000035 RelativeError: 0.3540384997023219
9567 [40, 599] BruteForce: 0 generic: 6.121164000000007 RelativeError: 0.5993322203672788
9568 [40, 4772] BruteForce: 0 generic: 6.125889000000001 RelativeError: 0.24853310980720872
9569 [40, 4473] BruteForce: 0 generic: 6.297342999999998 RelativeError: 0.8267382070198972
9570 [40, 4479] BruteForce: 0 generic: 5.9279049999999955 RelativeError: 0.5429783433802188
9571 [40, 4311] BruteForce: 0 generic: 6.136239999999987 RelativeError: 0.7954070981210856
9572 [40, 4562] BruteForce: 0 generic: 6.5523939999999925 RelativeError: 0.2220517316966243
9573 [40, 4738] BruteForce: 0 generic: 6.355429000000015 RelativeError: 0.2992823976361334
9574 [40, 4876] BruteForce: 0 generic: 6.429721000000001 RelativeError: 0.6267432321575062
9575 [40, 5061] BruteForce: 0 generic: 5.764120999999989 RelativeError: 0.6324836988737403
9576 [40, 5063] BruteForce: 0 generic: 5.907962999999995 RelativeError: 0.23819869642504443
9577 [40, 4870] BruteForce: 0 generic: 6.213166000000001 RelativeError: 0.9784394250513347
9578 [40, 5232] BruteForce: 0 generic: 7.992013000000014 RelativeError: 1.0
9579 [40, 4567] BruteForce: 0 generic: 5.9246980000000065 RelativeError: 0.08473834026713378
9580 [40, 4483] BruteForce: 0 generic: 6.340160999999995 RelativeError: 0.1969663171983047
9581 [40, 4907] BruteForce: 0 generic: 6.5142079999999964 RelativeError: 0.572039942938659
9582 [40, 5088] BruteForce: 0 generic: 6.329029999999989 RelativeError: 0.5129716981132075
9583 [40, 4192] BruteForce: 0 generic: 6.087130999999999 RelativeError: 0.11498091603053436
9584 [40, 5210] BruteForce: 0 generic: 6.241637999999995 RelativeError: 0.2543186180422265
9585 [40, 4667] BruteForce: 0 generic: 5.227601000000021 RelativeError: 1.0
9586 [40, 4700] BruteForce: 0 generic: 6.522131000000002 RelativeError: 0.07829787234042553
9587 [40, 5043] BruteForce: 0 generic: 6.45224300000001 RelativeError: 0.4396192742415229
9588 [40, 4805] BruteForce: 0 generic: 6.215005000000019 RelativeError: 0.023933402705515087
9589 [40, 4614] BruteForce: 0 generic: 6.516604000000001 RelativeError: 0.47724317295188556
9590 [40, 5157] BruteForce: 0 generic: 32.05076600000001 RelativeError: 1.0
9591 [40, 4522] BruteForce: 0 generic: 5.1510339999999815 RelativeError: 1.0
9592 [40, 4366] BruteForce: 0 generic: 5.823281000000009 RelativeError: 0.8676133760879523
9593 [40, 4994] BruteForce: 0 generic: 5.252577999999971 RelativeError: 1.0
9594 [40, 4215] BruteForce: 0 generic: 6.368642000000023 RelativeError: 0.5976275207591933
9595 [40, 4373] BruteForce: 0 generic: 6.092650000000049 RelativeError: 1.0
9596 [40, 4244] BruteForce: 0 generic: 5.6796280000000365 RelativeError: 0.7497643732327992
9597 [40, 4864] BruteForce: 0 generic: 5.830952999999965 RelativeError: 0.2800164473684211
9598 [40, 4814] BruteForce: 0 generic: 6.004482999999993 RelativeError: 0.860407145824678
9599 [40, 3884] BruteForce: 0 generic: 6.471930999999984 RelativeError: 0.8105046343975283
